Geography 176A
…
count: false
 
##Question 1: Joins (the right tool for the job)
.left-panel-q11-auto[

```r
*inner_join(covid, region, by = "state")
```
]
 
.right-panel-q11-auto[

```
# A tibble: 418,928 x 7
   date       county      state      fips  cases deaths region       
   <date>     <chr>       <chr>      <chr> <dbl>  <dbl> <fct>        
 1 2020-01-21 Snohomish   Washington 53061     1      0 West         
 2 2020-01-22 Snohomish   Washington 53061     1      0 West         
 3 2020-01-23 Snohomish   Washington 53061     1      0 West         
 4 2020-01-24 Cook        Illinois   17031     1      0 North Central
 5 2020-01-24 Snohomish   Washington 53061     1      0 West         
 6 2020-01-25 Orange      California 06059     1      0 West         
 7 2020-01-25 Cook        Illinois   17031     1      0 North Central
 8 2020-01-25 Snohomish   Washington 53061     1      0 West         
 9 2020-01-26 Maricopa    Arizona    04013     1      0 West         
10 2020-01-26 Los Angeles California 06037     1      0 West         
# … with 418,918 more rows
```
…
.right-panel-q11-auto[

```
# A tibble: 4 x 3
  region             n    tot
  <fct>          <int>  <int>
1 Northeast      32324 418928
2 South         194415 418928
3 North Central 135314 418928
4 West           56875 418928
```

```
# A tibble: 427,840 x 7
   date       county      state      fips  cases deaths region       
   <date>     <chr>       <chr>      <chr> <dbl>  <dbl> <fct>        
 1 2020-01-21 Snohomish   Washington 53061     1      0 West         
 2 2020-01-22 Snohomish   Washington 53061     1      0 West         
 3 2020-01-23 Snohomish   Washington 53061     1      0 West         
 4 2020-01-24 Cook        Illinois   17031     1      0 North Central
 5 2020-01-24 Snohomish   Washington 53061     1      0 West         
 6 2020-01-25 Orange      California 06059     1      0 West         
 7 2020-01-25 Cook        Illinois   17031     1      0 North Central
 8 2020-01-25 Snohomish   Washington 53061     1      0 West         
 9 2020-01-26 Maricopa    Arizona    04013     1      0 West         
10 2020-01-26 Los Angeles California 06037     1      0 West         
# … with 427,830 more rows
```
…
---
count: false
 
##Question 1: Joins (the right tool for the job)
.left-panel-q12-auto[

```r
*left_join(covid, region, by = "state")
```
]
 
.right-panel-q12-auto[

```
# A tibble: 427,840 x 7
   date       county      state      fips  cases deaths region       
   <date>     <chr>       <chr>      <chr> <dbl>  <dbl> <fct>        
 1 2020-01-21 Snohomish   Washington 53061     1      0 West         
 2 2020-01-22 Snohomish   Washington 53061     1      0 West         
 3 2020-01-23 Snohomish   Washington 53061     1      0 West         
 4 2020-01-24 Cook        Illinois   17031     1      0 North Central
 5 2020-01-24 Snohomish   Washington 53061     1      0 West         
 6 2020-01-25 Orange      California 06059     1      0 West         
 7 2020-01-25 Cook        Illinois   17031     1      0 North Central
 8 2020-01-25 Snohomish   Washington 53061     1      0 West         
 9 2020-01-26 Maricopa    Arizona    04013     1      0 West         
10 2020-01-26 Los Angeles California 06037     1      0 West         
# … with 427,830 more rows
```
…
.right-panel-q12-auto[

```
# A tibble: 5 x 3
  region             n    tot
  <fct>          <int>  <int>
1 Northeast      32324 427840
2 South         194415 427840
3 North Central 135314 427840
4 West           56875 427840
5 <NA>            8912 427840
```

```
# A tibble: 418,928 x 7
   date       county      state      fips  cases deaths region       
   <date>     <chr>       <chr>      <chr> <dbl>  <dbl> <fct>        
 1 2020-01-21 Snohomish   Washington 53061     1      0 West         
 2 2020-01-22 Snohomish   Washington 53061     1      0 West         
 3 2020-01-23 Snohomish   Washington 53061     1      0 West         
 4 2020-01-24 Cook        Illinois   17031     1      0 North Central
 5 2020-01-24 Snohomish   Washington 53061     1      0 West         
 6 2020-01-25 Orange      California 06059     1      0 West         
 7 2020-01-25 Cook        Illinois   17031     1      0 North Central
 8 2020-01-25 Snohomish   Washington 53061     1      0 West         
 9 2020-01-26 Maricopa    Arizona    04013     1      0 West         
10 2020-01-26 Los Angeles California 06037     1      0 West         
# … with 418,918 more rows
```
…
---
count: false
 
##Question 1: Refine and Pivot (the right data for the task)
.left-panel-q13-auto[

```r
*covid
```
]
 
.right-panel-q13-auto[

```
# A tibble: 427,840 x 6
   date       county      state      fips  cases deaths
   <date>     <chr>       <chr>      <chr> <dbl>  <dbl>
 1 2020-01-21 Snohomish   Washington 53061     1      0
 2 2020-01-22 Snohomish   Washington 53061     1      0
 3 2020-01-23 Snohomish   Washington 53061     1      0
 4 2020-01-24 Cook        Illinois   17031     1      0
 5 2020-01-24 Snohomish   Washington 53061     1      0
 6 2020-01-25 Orange      California 06059     1      0
 7 2020-01-25 Cook        Illinois   17031     1      0
 8 2020-01-25 Snohomish   Washington 53061     1      0
 9 2020-01-26 Maricopa    Arizona    04013     1      0
10 2020-01-26 Los Angeles California 06037     1      0
# … with 427,830 more rows
```
…
##Question 1: Refine and Pivot (the right data for the task)
.left-panel-q13-auto[

```r
covid %>%  
* right_join(region, by = "state")
```
]
 
.right-panel-q13-auto[

```
# A tibble: 418,928 x 7
   date       county      state      fips  cases deaths region       
   <date>     <chr>       <chr>      <chr> <dbl>  <dbl> <fct>        
 1 2020-01-21 Snohomish   Washington 53061     1      0 West         
 2 2020-01-22 Snohomish   Washington 53061     1      0 West         
 3 2020-01-23 Snohomish   Washington 53061     1      0 West         
 4 2020-01-24 Cook        Illinois   17031     1      0 North Central
 5 2020-01-24 Snohomish   Washington 53061     1      0 West         
 6 2020-01-25 Orange      California 06059     1      0 West         
 7 2020-01-25 Cook        Illinois   17031     1      0 North Central
 8 2020-01-25 Snohomish   Washington 53061     1      0 West         
 9 2020-01-26 Maricopa    Arizona    04013     1      0 West         
10 2020-01-26 Los Angeles California 06037     1      0 West         
# … with 418,918 more rows
```
…
##Question 1: Refine and Pivot (the right data for the task)
.left-panel-q13-auto[

```r
covid %>%  
  right_join(region, by = "state") %>%  
* group_by(region, date)
```
]
 
.right-panel-q13-auto[

```
# A tibble: 418,928 x 7
# Groups:   region, date [784]
   date       county      state      fips  cases deaths region       
   <date>     <chr>       <chr>      <chr> <dbl>  <dbl> <fct>        
 1 2020-01-21 Snohomish   Washington 53061     1      0 West         
 2 2020-01-22 Snohomish   Washington 53061     1      0 West         
 3 2020-01-23 Snohomish   Washington 53061     1      0 West         
 4 2020-01-24 Cook        Illinois   17031     1      0 North Central
 5 2020-01-24 Snohomish   Washington 53061     1      0 West         
 6 2020-01-25 Orange      California 06059     1      0 West         
 7 2020-01-25 Cook        Illinois   17031     1      0 North Central
 8 2020-01-25 Snohomish   Washington 53061     1      0 West         
 9 2020-01-26 Maricopa    Arizona    04013     1      0 West         
10 2020-01-26 Los Angeles California 06037     1      0 West         
# … with 418,918 more rows
```
…
```r
covid %>%  
  right_join(region, by = "state") %>%  
  group_by(region, date) %>%  
* summarize(cases  = sum(cases),
*           deaths = sum(deaths))
```
]
 
.right-panel-q13-auto[

```
# A tibble: 784 x 4
# Groups:   region [4]
   region    date       cases deaths
   <fct>     <date>     <dbl>  <dbl>
 1 Northeast 2020-02-01     1      0
 2 Northeast 2020-02-02     1      0
 3 Northeast 2020-02-03     1      0
 4 Northeast 2020-02-04     1      0
 5 Northeast 2020-02-05     1      0
 6 Northeast 2020-02-06     1      0
 7 Northeast 2020-02-07     1      0
 8 Northeast 2020-02-08     1      0
 9 Northeast 2020-02-09     1      0
10 Northeast 2020-02-10     1      0
# … with 774 more rows
```
…
```r
covid %>%  
  right_join(region, by = "state") %>%  
  group_by(region, date) %>%  
  summarize(cases  = sum(cases),  
            deaths = sum(deaths)) %>%  
* pivot_longer(cols = c('cases', 'deaths'))
```
]
 
.right-panel-q13-auto[

```
# A tibble: 1,568 x 4
# Groups:   region [4]
   region    date       name   value
   <fct>     <date>     <chr>  <dbl>
 1 Northeast 2020-02-01 cases      1
 2 Northeast 2020-02-01 deaths     0
 3 Northeast 2020-02-02 cases      1
 4 Northeast 2020-02-02 deaths     0
 5 Northeast 2020-02-03 cases      1
 6 Northeast 2020-02-03 deaths     0
 7 Northeast 2020-02-04 cases      1
 8 Northeast 2020-02-04 deaths     0
 9 Northeast 2020-02-05 cases      1
10 Northeast 2020-02-05 deaths     0
# … with 1,558 more rows
```
…
---
count: false
 
#Lagging Values: 2 ways
.left-panel-lag-auto[

```r
*covid
```
]
 
.right-panel-lag-auto[

```
# A tibble: 427,840 x 6
   date       county      state      fips  cases deaths
   <date>     <chr>       <chr>      <chr> <dbl>  <dbl>
 1 2020-01-21 Snohomish   Washington 53061     1      0
 2 2020-01-22 Snohomish   Washington 53061     1      0
 3 2020-01-23 Snohomish   Washington 53061     1      0
 4 2020-01-24 Cook        Illinois   17031     1      0
 5 2020-01-24 Snohomish   Washington 53061     1      0
 6 2020-01-25 Orange      California 06059     1      0
 7 2020-01-25 Cook        Illinois   17031     1      0
 8 2020-01-25 Snohomish   Washington 53061     1      0
 9 2020-01-26 Maricopa    Arizona    04013     1      0
10 2020-01-26 Los Angeles California 06037     1      0
# … with 427,830 more rows
```
…
#Lagging Values: 2 ways
.left-panel-lag-auto[

```r
covid %>%  
* filter(county == "Santa Barbara")
```
]
 
.right-panel-lag-auto[

```
# A tibble: 151 x 6
   date       county        state      fips  cases deaths
   <date>     <chr>         <chr>      <chr> <dbl>  <dbl>
 1 2020-03-15 Santa Barbara California 06083     1      0
 2 2020-03-16 Santa Barbara California 06083     1      0
 3 2020-03-17 Santa Barbara California 06083     2      0
 4 2020-03-18 Santa Barbara California 06083     2      0
 5 2020-03-19 Santa Barbara California 06083     8      0
 6 2020-03-20 Santa Barbara California 06083     9      0
 7 2020-03-21 Santa Barbara California 06083    17      0
 8 2020-03-22 Santa Barbara California 06083    18      0
 9 2020-03-23 Santa Barbara California 06083    18      0
10 2020-03-24 Santa Barbara California 06083    24      0
# … with 141 more rows
```
…
#Lagging Values: 2 ways
.left-panel-lag-auto[

```r
covid %>%  
  filter(county == "Santa Barbara") %>%  
* mutate(newCases = cases - lag(cases))
```
]
 
.right-panel-lag-auto[

```
# A tibble: 151 x 7
   date       county        state      fips  cases deaths newCases
   <date>     <chr>         <chr>      <chr> <dbl>  <dbl>    <dbl>
 1 2020-03-15 Santa Barbara California 06083     1      0       NA
 2 2020-03-16 Santa Barbara California 06083     1      0        0
 3 2020-03-17 Santa Barbara California 06083     2      0        1
 4 2020-03-18 Santa Barbara California 06083     2      0        0
 5 2020-03-19 Santa Barbara California 06083     8      0        6
 6 2020-03-20 Santa Barbara California 06083     9      0        1
 7 2020-03-21 Santa Barbara California 06083    17      0        8
 8 2020-03-22 Santa Barbara California 06083    18      0        1
 9 2020-03-23 Santa Barbara California 06083    18      0        0
10 2020-03-24 Santa Barbara California 06083    24      0        6
# … with 141 more rows
```
…
#Lagging Values: 2 ways
.left-panel-lag-auto[

```r
covid %>%  
  filter(county == "Santa Barbara") %>%  
  mutate(newCases = cases - lag(cases)) %>%  
* mutate(newCases2 = c(NA, diff(cases)))
```
]
 
.right-panel-lag-auto[

```
# A tibble: 151 x 8
   date       county        state      fips  cases deaths newCases newCases2
   <date>     <chr>         <chr>      <chr> <dbl>  <dbl>    <dbl>     <dbl>
 1 2020-03-15 Santa Barbara California 06083     1      0       NA        NA
 2 2020-03-16 Santa Barbara California 06083     1      0        0         0
 3 2020-03-17 Santa Barbara California 06083     2      0        1         1
 4 2020-03-18 Santa Barbara California 06083     2      0        0         0
 5 2020-03-19 Santa Barbara California 06083     8      0        6         6
 6 2020-03-20 Santa Barbara California 06083     9      0        1         1
 7 2020-03-21 Santa Barbara California 06083    17      0        8         8
 8 2020-03-22 Santa Barbara California 06083    18      0        1         1
 9 2020-03-23 Santa Barbara California 06083    18      0        0         0
10 2020-03-24 Santa Barbara California 06083    24      0        6         6
# … with 141 more rows
```
…
```r
covid %>%  
  filter(county == "Santa Barbara") %>%  
  mutate(newCases = cases - lag(cases)) %>%  
  mutate(newCases2 = c(NA, diff(cases))) %>%  
* pivot_longer(cols = c('cases', 'newCases'))
```
]
 
.right-panel-lag-auto[

```
# A tibble: 302 x 8
   date       county        state      fips  deaths newCases2 name     value
   <date>     <chr>         <chr>      <chr>  <dbl>     <dbl> <chr>    <dbl>
 1 2020-03-15 Santa Barbara California 06083      0        NA cases        1
 2 2020-03-15 Santa Barbara California 06083      0        NA newCases    NA
 3 2020-03-16 Santa Barbara California 06083      0         0 cases        1
 4 2020-03-16 Santa Barbara California 06083      0         0 newCases     0
 5 2020-03-17 Santa Barbara California 06083      0         1 cases        2
 6 2020-03-17 Santa Barbara California 06083      0         1 newCases     1
 7 2020-03-18 Santa Barbara California 06083      0         0 cases        2
 8 2020-03-18 Santa Barbara California 06083      0         0 newCases     0
 9 2020-03-19 Santa Barbara California 06083      0         6 cases        8
10 2020-03-19 Santa Barbara California 06083      0         6 newCases     6
# … with 292 more rows
```
…
.right-panel-lag-auto[

```
# A tibble: 302 x 8
   date       county       state     fips  deaths newCases2 name           value
   <date>     <chr>        <chr>     <chr>  <dbl>     <dbl> <fct>          <dbl>
 1 2020-03-15 Santa Barba… Californ… 06083      0        NA Cummulative C…     1
 2 2020-03-15 Santa Barba… Californ… 06083      0        NA New Cases         NA
 3 2020-03-16 Santa Barba… Californ… 06083      0         0 Cummulative C…     1
 4 2020-03-16 Santa Barba… Californ… 06083      0         0 New Cases          0
 5 2020-03-17 Santa Barba… Californ… 06083      0         1 Cummulative C…     2
 6 2020-03-17 Santa Barba… Californ… 06083      0         1 New Cases          1
 7 2020-03-18 Santa Barba… Californ… 06083      0         0 Cummulative C…     2
 8 2020-03-18 Santa Barba… Californ… 06083      0         0 New Cases          0
 9 2020-03-19 Santa Barba… Californ… 06083      0         6 Cummulative C…     8
10 2020-03-19 Santa Barba… Californ… 06083      0         6 New Cases          6
# … with 292 more rows
```
…
#Replicate the NY-Times Image
.left-panel-al-auto[

```r
state.of.interest = "Alabama"  

*covid
```
]
 
.right-panel-al-auto[

```
# A tibble: 427,840 x 6
   date       county      state      fips  cases deaths
   <date>     <chr>       <chr>      <chr> <dbl>  <dbl>
 1 2020-01-21 Snohomish   Washington 53061     1      0
 2 2020-01-22 Snohomish   Washington 53061     1      0
 3 2020-01-23 Snohomish   Washington 53061     1      0
 4 2020-01-24 Cook        Illinois   17031     1      0
 5 2020-01-24 Snohomish   Washington 53061     1      0
 6 2020-01-25 Orange      California 06059     1      0
 7 2020-01-25 Cook        Illinois   17031     1      0
 8 2020-01-25 Snohomish   Washington 53061     1      0
 9 2020-01-26 Maricopa    Arizona    04013     1      0
10 2020-01-26 Los Angeles California 06037     1      0
# … with 427,830 more rows
```
…
#Replicate the NY-Times Image
.left-panel-al-auto[

```r
state.of.interest = "Alabama"  

covid %>%  
* filter(state == state.of.interest)
```
]
 
.right-panel-al-auto[

```
# A tibble: 9,499 x 6
   date       county     state   fips  cases deaths
   <date>     <chr>      <chr>   <chr> <dbl>  <dbl>
 1 2020-03-13 Elmore     Alabama 01051     1      0
 2 2020-03-13 Jefferson  Alabama 01073     2      0
 3 2020-03-13 Limestone  Alabama 01083     1      0
 4 2020-03-13 Montgomery Alabama 01101     1      0
 5 2020-03-13 Tuscaloosa Alabama 01125     1      0
 6 2020-03-14 Baldwin    Alabama 01003     1      0
 7 2020-03-14 Elmore     Alabama 01051     1      0
 8 2020-03-14 Jefferson  Alabama 01073     6      0
 9 2020-03-14 Limestone  Alabama 01083     1      0
10 2020-03-14 Montgomery Alabama 01101     1      0
# … with 9,489 more rows
```
…
```r
state.of.interest = "Alabama"  

covid %>%  
  filter(state == state.of.interest) %>%  
* group_by(date)
```
]
 
.right-panel-al-auto[

```
# A tibble: 9,499 x 6
# Groups:   date [153]
   date       county     state   fips  cases deaths
   <date>     <chr>      <chr>   <chr> <dbl>  <dbl>
 1 2020-03-13 Elmore     Alabama 01051     1      0
 2 2020-03-13 Jefferson  Alabama 01073     2      0
 3 2020-03-13 Limestone  Alabama 01083     1      0
 4 2020-03-13 Montgomery Alabama 01101     1      0
 5 2020-03-13 Tuscaloosa Alabama 01125     1      0
 6 2020-03-14 Baldwin    Alabama 01003     1      0
 7 2020-03-14 Elmore     Alabama 01051     1      0
 8 2020-03-14 Jefferson  Alabama 01073     6      0
 9 2020-03-14 Limestone  Alabama 01083     1      0
10 2020-03-14 Montgomery Alabama 01101     1      0
# … with 9,489 more rows
```
…
```r
state.of.interest = "Alabama"  

covid %>%  
  filter(state == state.of.interest) %>%  
  group_by(date) %>%  
* summarise(cases = sum(cases))
```
]
 
.right-panel-al-auto[

```
# A tibble: 153 x 2
   date       cases
   <date>     <dbl>
 1 2020-03-13     6
 2 2020-03-14    12
 3 2020-03-15    23
 4 2020-03-16    29
 5 2020-03-17    39
 6 2020-03-18    51
 7 2020-03-19    78
 8 2020-03-20   106
 9 2020-03-21   131
10 2020-03-22   157
# … with 143 more rows
```
…
covid %>%  
  filter(state == state.of.interest) %>%  
  group_by(date) %>%  
  summarise(cases = sum(cases)) %>%  
* mutate(newCases = cases - lag(cases),
*        roll7 = rollmean(newCases, 7, fill = NA, align="right"))
```
]
 
.right-panel-al-auto[

```
# A tibble: 153 x 4
   date       cases newCases roll7
   <date>     <dbl>    <dbl> <dbl>
 1 2020-03-13     6       NA  NA  
 2 2020-03-14    12        6  NA  
 3 2020-03-15    23       11  NA  
 4 2020-03-16    29        6  NA  
 5 2020-03-17    39       10  NA  
 6 2020-03-18    51       12  NA  
 7 2020-03-19    78       27  NA  
 8 2020-03-20   106       28  14.3
 9 2020-03-21   131       25  17  
10 2020-03-22   157       26  19.1
# … with 143 more rows
```
…
