Geography 13
…
count: false
 
##Question 1: Joins (the right tool for the job)
.panel1-q11-auto[

```r
*inner_join(covid, region, by = "state")
```
]
 
.panel2-q11-auto[

```
# A tibble: 1,451,491 x 7
   date       county    state    fips  cases deaths
   <date>     <chr>     <chr>    <chr> <dbl>  <dbl>
 1 2020-01-21 Snohomish Washing… 53061     1      0
 2 2020-01-22 Snohomish Washing… 53061     1      0
 3 2020-01-23 Snohomish Washing… 53061     1      0
 4 2020-01-24 Cook      Illinois 17031     1      0
 5 2020-01-24 Snohomish Washing… 53061     1      0
 6 2020-01-25 Orange    Califor… 06059     1      0
 7 2020-01-25 Cook      Illinois 17031     1      0
 8 2020-01-25 Snohomish Washing… 53061     1      0
 9 2020-01-26 Maricopa  Arizona  04013     1      0
10 2020-01-26 Los Ange… Califor… 06037     1      0
# … with 1,451,481 more rows, and 1 more variable:
#   region <fct>
```
…
.panel2-q11-auto[

```
# A tibble: 4 x 3
  region             n     tot
  <fct>          <int>   <int>
1 Northeast     104137 1451491
2 South         661480 1451491
3 North Central 482878 1451491
4 West          202996 1451491
```

```
# A tibble: 1,488,568 x 7
   date       county    state    fips  cases deaths
   <date>     <chr>     <chr>    <chr> <dbl>  <dbl>
 1 2020-01-21 Snohomish Washing… 53061     1      0
 2 2020-01-22 Snohomish Washing… 53061     1      0
 3 2020-01-23 Snohomish Washing… 53061     1      0
 4 2020-01-24 Cook      Illinois 17031     1      0
 5 2020-01-24 Snohomish Washing… 53061     1      0
 6 2020-01-25 Orange    Califor… 06059     1      0
 7 2020-01-25 Cook      Illinois 17031     1      0
 8 2020-01-25 Snohomish Washing… 53061     1      0
 9 2020-01-26 Maricopa  Arizona  04013     1      0
10 2020-01-26 Los Ange… Califor… 06037     1      0
# … with 1,488,558 more rows, and 1 more variable:
#   region <fct>
```
…
---
count: false
 
##Question 1: Joins (the right tool for the job)
.panel1-q12-auto[

```r
*left_join(covid, region, by = "state")
```
]
 
.panel2-q12-auto[

```
# A tibble: 1,488,568 x 7
   date       county    state    fips  cases deaths
   <date>     <chr>     <chr>    <chr> <dbl>  <dbl>
 1 2020-01-21 Snohomish Washing… 53061     1      0
 2 2020-01-22 Snohomish Washing… 53061     1      0
 3 2020-01-23 Snohomish Washing… 53061     1      0
 4 2020-01-24 Cook      Illinois 17031     1      0
 5 2020-01-24 Snohomish Washing… 53061     1      0
 6 2020-01-25 Orange    Califor… 06059     1      0
 7 2020-01-25 Cook      Illinois 17031     1      0
 8 2020-01-25 Snohomish Washing… 53061     1      0
 9 2020-01-26 Maricopa  Arizona  04013     1      0
10 2020-01-26 Los Ange… Califor… 06037     1      0
# … with 1,488,558 more rows, and 1 more variable:
#   region <fct>
```
…
.panel2-q12-auto[

```
# A tibble: 5 x 3
  region             n     tot
  <fct>          <int>   <int>
1 Northeast     104137 1488568
2 South         661480 1488568
3 North Central 482878 1488568
4 West          202996 1488568
5 <NA>           37077 1488568
```

```
# A tibble: 1,451,491 x 7
   date       county    state    fips  cases deaths
   <date>     <chr>     <chr>    <chr> <dbl>  <dbl>
 1 2020-01-21 Snohomish Washing… 53061     1      0
 2 2020-01-22 Snohomish Washing… 53061     1      0
 3 2020-01-23 Snohomish Washing… 53061     1      0
 4 2020-01-24 Cook      Illinois 17031     1      0
 5 2020-01-24 Snohomish Washing… 53061     1      0
 6 2020-01-25 Orange    Califor… 06059     1      0
 7 2020-01-25 Cook      Illinois 17031     1      0
 8 2020-01-25 Snohomish Washing… 53061     1      0
 9 2020-01-26 Maricopa  Arizona  04013     1      0
10 2020-01-26 Los Ange… Califor… 06037     1      0
# … with 1,451,481 more rows, and 1 more variable:
#   region <fct>
```
…
---
count: false
 
##Question 1: Refine and Pivot (the right data for the task)
.panel1-q13-auto[

```r
*covid
```
]
 
.panel2-q13-auto[

```
# A tibble: 1,488,568 x 6
   date       county    state    fips  cases deaths
   <date>     <chr>     <chr>    <chr> <dbl>  <dbl>
 1 2020-01-21 Snohomish Washing… 53061     1      0
 2 2020-01-22 Snohomish Washing… 53061     1      0
 3 2020-01-23 Snohomish Washing… 53061     1      0
 4 2020-01-24 Cook      Illinois 17031     1      0
 5 2020-01-24 Snohomish Washing… 53061     1      0
 6 2020-01-25 Orange    Califor… 06059     1      0
 7 2020-01-25 Cook      Illinois 17031     1      0
 8 2020-01-25 Snohomish Washing… 53061     1      0
 9 2020-01-26 Maricopa  Arizona  04013     1      0
10 2020-01-26 Los Ange… Califor… 06037     1      0
# … with 1,488,558 more rows
```
…
##Question 1: Refine and Pivot (the right data for the task)
.panel1-q13-auto[

```r
covid %>%
* right_join(region, by = "state")
```
]
 
.panel2-q13-auto[

```
# A tibble: 1,451,491 x 7
   date       county    state    fips  cases deaths
   <date>     <chr>     <chr>    <chr> <dbl>  <dbl>
 1 2020-01-21 Snohomish Washing… 53061     1      0
 2 2020-01-22 Snohomish Washing… 53061     1      0
 3 2020-01-23 Snohomish Washing… 53061     1      0
 4 2020-01-24 Cook      Illinois 17031     1      0
 5 2020-01-24 Snohomish Washing… 53061     1      0
 6 2020-01-25 Orange    Califor… 06059     1      0
 7 2020-01-25 Cook      Illinois 17031     1      0
 8 2020-01-25 Snohomish Washing… 53061     1      0
 9 2020-01-26 Maricopa  Arizona  04013     1      0
10 2020-01-26 Los Ange… Califor… 06037     1      0
# … with 1,451,481 more rows, and 1 more variable:
#   region <fct>
```
…
##Question 1: Refine and Pivot (the right data for the task)
.panel1-q13-auto[

```r
covid %>%
  right_join(region, by = "state") %>%
* group_by(region, date)
```
]
 
.panel2-q13-auto[

```
# A tibble: 1,451,491 x 7
# Groups:   region, date [2,092]
   date       county    state    fips  cases deaths
   <date>     <chr>     <chr>    <chr> <dbl>  <dbl>
 1 2020-01-21 Snohomish Washing… 53061     1      0
 2 2020-01-22 Snohomish Washing… 53061     1      0
 3 2020-01-23 Snohomish Washing… 53061     1      0
 4 2020-01-24 Cook      Illinois 17031     1      0
 5 2020-01-24 Snohomish Washing… 53061     1      0
 6 2020-01-25 Orange    Califor… 06059     1      0
 7 2020-01-25 Cook      Illinois 17031     1      0
 8 2020-01-25 Snohomish Washing… 53061     1      0
 9 2020-01-26 Maricopa  Arizona  04013     1      0
10 2020-01-26 Los Ange… Califor… 06037     1      0
# … with 1,451,481 more rows, and 1 more variable:
#   region <fct>
```
…
```r
covid %>%
  right_join(region, by = "state") %>%
  group_by(region, date) %>%
* summarize(cases  = sum(cases),
*           deaths = sum(deaths))
```
]
 
.panel2-q13-auto[

```
# A tibble: 2,092 x 4
# Groups:   region [4]
   region    date       cases deaths
   <fct>     <date>     <dbl>  <dbl>
 1 Northeast 2020-02-01     1      0
 2 Northeast 2020-02-02     1      0
 3 Northeast 2020-02-03     1      0
 4 Northeast 2020-02-04     1      0
 5 Northeast 2020-02-05     1      0
 6 Northeast 2020-02-06     1      0
 7 Northeast 2020-02-07     1      0
 8 Northeast 2020-02-08     1      0
 9 Northeast 2020-02-09     1      0
10 Northeast 2020-02-10     1      0
# … with 2,082 more rows
```
…
```r
covid %>%
  right_join(region, by = "state") %>%
  group_by(region, date) %>%
  summarize(cases  = sum(cases),
            deaths = sum(deaths)) %>%
* pivot_longer(cols = c('cases', 'deaths'))
```
]
 
.panel2-q13-auto[

```
# A tibble: 4,184 x 4
# Groups:   region [4]
   region    date       name   value
   <fct>     <date>     <chr>  <dbl>
 1 Northeast 2020-02-01 cases      1
 2 Northeast 2020-02-01 deaths     0
 3 Northeast 2020-02-02 cases      1
 4 Northeast 2020-02-02 deaths     0
 5 Northeast 2020-02-03 cases      1
 6 Northeast 2020-02-03 deaths     0
 7 Northeast 2020-02-04 cases      1
 8 Northeast 2020-02-04 deaths     0
 9 Northeast 2020-02-05 cases      1
10 Northeast 2020-02-05 deaths     0
# … with 4,174 more rows
```
…
---
count: false
 
#Lagging Values: 2 ways
.panel1-lag-auto[

```r
*covid
```
]
 
.panel2-lag-auto[

```
# A tibble: 1,488,568 x 6
   date       county state fips 
   <date>     <chr>  <chr> <chr>
 1 2020-01-21 Snoho… Wash… 53061
 2 2020-01-22 Snoho… Wash… 53061
 3 2020-01-23 Snoho… Wash… 53061
 4 2020-01-24 Cook   Illi… 17031
 5 2020-01-24 Snoho… Wash… 53061
 6 2020-01-25 Orange Cali… 06059
 7 2020-01-25 Cook   Illi… 17031
 8 2020-01-25 Snoho… Wash… 53061
 9 2020-01-26 Maric… Ariz… 04013
10 2020-01-26 Los A… Cali… 06037
# … with 1,488,558 more rows,
#   and 2 more variables:
#   cases <dbl>, deaths <dbl>
```
…
#Lagging Values: 2 ways
.panel1-lag-auto[

```r
covid %>%
* filter(county == "Santa Barbara")
```
]
 
.panel2-lag-auto[

```
# A tibble: 478 x 6
   date       county state fips 
   <date>     <chr>  <chr> <chr>
 1 2020-03-15 Santa… Cali… 06083
 2 2020-03-16 Santa… Cali… 06083
 3 2020-03-17 Santa… Cali… 06083
 4 2020-03-18 Santa… Cali… 06083
 5 2020-03-19 Santa… Cali… 06083
 6 2020-03-20 Santa… Cali… 06083
 7 2020-03-21 Santa… Cali… 06083
 8 2020-03-22 Santa… Cali… 06083
 9 2020-03-23 Santa… Cali… 06083
10 2020-03-24 Santa… Cali… 06083
# … with 468 more rows, and 2
#   more variables:
#   cases <dbl>, deaths <dbl>
```
…
#Lagging Values: 2 ways
.panel1-lag-auto[

```r
covid %>%
  filter(county == "Santa Barbara") %>%
* mutate(newCases = cases - lag(cases))
```
]
 
.panel2-lag-auto[

```
# A tibble: 478 x 7
   date       county state fips 
   <date>     <chr>  <chr> <chr>
 1 2020-03-15 Santa… Cali… 06083
 2 2020-03-16 Santa… Cali… 06083
 3 2020-03-17 Santa… Cali… 06083
 4 2020-03-18 Santa… Cali… 06083
 5 2020-03-19 Santa… Cali… 06083
 6 2020-03-20 Santa… Cali… 06083
 7 2020-03-21 Santa… Cali… 06083
 8 2020-03-22 Santa… Cali… 06083
 9 2020-03-23 Santa… Cali… 06083
10 2020-03-24 Santa… Cali… 06083
# … with 468 more rows, and 3
#   more variables:
#   cases <dbl>, deaths <dbl>,
#   newCases <dbl>
```
…
#Lagging Values: 2 ways
.panel1-lag-auto[

```r
covid %>%
  filter(county == "Santa Barbara") %>%
  mutate(newCases = cases - lag(cases)) %>%
* mutate(newCases2 = c(NA, diff(cases)))
```
]
 
.panel2-lag-auto[

```
# A tibble: 478 x 8
   date       county state fips 
   <date>     <chr>  <chr> <chr>
 1 2020-03-15 Santa… Cali… 06083
 2 2020-03-16 Santa… Cali… 06083
 3 2020-03-17 Santa… Cali… 06083
 4 2020-03-18 Santa… Cali… 06083
 5 2020-03-19 Santa… Cali… 06083
 6 2020-03-20 Santa… Cali… 06083
 7 2020-03-21 Santa… Cali… 06083
 8 2020-03-22 Santa… Cali… 06083
 9 2020-03-23 Santa… Cali… 06083
10 2020-03-24 Santa… Cali… 06083
# … with 468 more rows, and 4
#   more variables:
#   cases <dbl>, deaths <dbl>,
#   newCases <dbl>,
#   newCases2 <dbl>
```
…
```r
covid %>%
  filter(county == "Santa Barbara") %>%
  mutate(newCases = cases - lag(cases)) %>%
  mutate(newCases2 = c(NA, diff(cases))) %>%
* pivot_longer(cols = c('cases', 'newCases'))
```
]
 
.panel2-lag-auto[

```
# A tibble: 956 x 8
   date       county state fips 
   <date>     <chr>  <chr> <chr>
 1 2020-03-15 Santa… Cali… 06083
 2 2020-03-15 Santa… Cali… 06083
 3 2020-03-16 Santa… Cali… 06083
 4 2020-03-16 Santa… Cali… 06083
 5 2020-03-17 Santa… Cali… 06083
 6 2020-03-17 Santa… Cali… 06083
 7 2020-03-18 Santa… Cali… 06083
 8 2020-03-18 Santa… Cali… 06083
 9 2020-03-19 Santa… Cali… 06083
10 2020-03-19 Santa… Cali… 06083
# … with 946 more rows, and 4
#   more variables:
#   deaths <dbl>,
#   newCases2 <dbl>,
#   name <chr>, value <dbl>
```
…
.panel2-lag-auto[

```
# A tibble: 956 x 8
   date       county state fips 
   <date>     <chr>  <chr> <chr>
 1 2020-03-15 Santa… Cali… 06083
 2 2020-03-15 Santa… Cali… 06083
 3 2020-03-16 Santa… Cali… 06083
 4 2020-03-16 Santa… Cali… 06083
 5 2020-03-17 Santa… Cali… 06083
 6 2020-03-17 Santa… Cali… 06083
 7 2020-03-18 Santa… Cali… 06083
 8 2020-03-18 Santa… Cali… 06083
 9 2020-03-19 Santa… Cali… 06083
10 2020-03-19 Santa… Cali… 06083
# … with 946 more rows, and 4
#   more variables:
#   deaths <dbl>,
#   newCases2 <dbl>,
#   name <fct>, value <dbl>
```
…
#Replicate the NY-Times Image
.panel1-al-auto[

```r
state.of.interest = "Alabama"

*covid
```
]
 
.panel2-al-auto[

```
# A tibble: 1,488,568 x 6
   date       county state fips 
   <date>     <chr>  <chr> <chr>
 1 2020-01-21 Snoho… Wash… 53061
 2 2020-01-22 Snoho… Wash… 53061
 3 2020-01-23 Snoho… Wash… 53061
 4 2020-01-24 Cook   Illi… 17031
 5 2020-01-24 Snoho… Wash… 53061
 6 2020-01-25 Orange Cali… 06059
 7 2020-01-25 Cook   Illi… 17031
 8 2020-01-25 Snoho… Wash… 53061
 9 2020-01-26 Maric… Ariz… 04013
10 2020-01-26 Los A… Cali… 06037
# … with 1,488,558 more rows,
#   and 2 more variables:
#   cases <dbl>, deaths <dbl>
```
…
#Replicate the NY-Times Image
.panel1-al-auto[

```r
state.of.interest = "Alabama"

covid %>%
* filter(state == state.of.interest)
```
]
 
.panel2-al-auto[

```
# A tibble: 31,408 x 6
   date       county state fips 
   <date>     <chr>  <chr> <chr>
 1 2020-03-13 Elmore Alab… 01051
 2 2020-03-13 Jeffe… Alab… 01073
 3 2020-03-13 Limes… Alab… 01083
 4 2020-03-13 Montg… Alab… 01101
 5 2020-03-13 Tusca… Alab… 01125
 6 2020-03-14 Baldw… Alab… 01003
 7 2020-03-14 Elmore Alab… 01051
 8 2020-03-14 Jeffe… Alab… 01073
 9 2020-03-14 Limes… Alab… 01083
10 2020-03-14 Montg… Alab… 01101
# … with 31,398 more rows, and
#   2 more variables:
#   cases <dbl>, deaths <dbl>
```
…
```r
state.of.interest = "Alabama"

covid %>%
  filter(state == state.of.interest) %>%
* group_by(date)
```
]
 
.panel2-al-auto[

```
# A tibble: 31,408 x 6
# Groups:   date [480]
   date       county state fips 
   <date>     <chr>  <chr> <chr>
 1 2020-03-13 Elmore Alab… 01051
 2 2020-03-13 Jeffe… Alab… 01073
 3 2020-03-13 Limes… Alab… 01083
 4 2020-03-13 Montg… Alab… 01101
 5 2020-03-13 Tusca… Alab… 01125
 6 2020-03-14 Baldw… Alab… 01003
 7 2020-03-14 Elmore Alab… 01051
 8 2020-03-14 Jeffe… Alab… 01073
 9 2020-03-14 Limes… Alab… 01083
10 2020-03-14 Montg… Alab… 01101
# … with 31,398 more rows, and
#   2 more variables:
#   cases <dbl>, deaths <dbl>
```
…
```r
state.of.interest = "Alabama"

covid %>%
  filter(state == state.of.interest) %>%
  group_by(date) %>%
* summarise(cases = sum(cases))
```
]
 
.panel2-al-auto[

```
# A tibble: 480 x 2
   date       cases
   <date>     <dbl>
 1 2020-03-13     6
 2 2020-03-14    12
 3 2020-03-15    23
 4 2020-03-16    29
 5 2020-03-17    39
 6 2020-03-18    51
 7 2020-03-19    78
 8 2020-03-20   106
 9 2020-03-21   131
10 2020-03-22   157
# … with 470 more rows
```
…
covid %>%
  filter(state == state.of.interest) %>%
  group_by(date) %>%
  summarise(cases = sum(cases)) %>%
* mutate(newCases = cases - lag(cases),
*        roll7 = rollmean(newCases, 7, fill = NA, align="right"))
```
]
 
.panel2-al-auto[

```
# A tibble: 480 x 4
   date       cases newCases
   <date>     <dbl>    <dbl>
 1 2020-03-13     6       NA
 2 2020-03-14    12        6
 3 2020-03-15    23       11
 4 2020-03-16    29        6
 5 2020-03-17    39       10
 6 2020-03-18    51       12
 7 2020-03-19    78       27
 8 2020-03-20   106       28
 9 2020-03-21   131       25
10 2020-03-22   157       26
# … with 470 more rows, and 1
#   more variable: roll7 <dbl>
```
…
```r
dat = covid %>% 
  filter(state == "California") %>% 
  group_by(county) %>% 
  mutate(newCases = cases - lag(cases)) %>% 
  ungroup() %>% 
  filter(date == max(date)) 

(most_new_cases = dat %>% 
  slice_max(newCases, n = 5) %>% 
  select(county, newCases))
```

```
# A tibble: 58 x 2
   county       newCases
   <chr>           <dbl>
 1 Los Angeles       436
 2 Santa Clara       114
 3 Contra Costa       68
 4 Kings               2
 5 Alameda             0
 6 Alpine              0
 7 Amador              0
 8 Butte               0
 9 Calaveras           0
10 Colusa              0
# … with 48 more rows
```
…
