Geography 13
…
count: false
 
# Data Exploration
.panel1-wind1-auto[

```r
*us_wind
```
]
 
.panel2-wind1-auto[

```
# A tibble: 58,185 x 4
   t_state t_county    xlong  ylat
   <chr>   <chr>       <dbl> <dbl>
 1 CA      Kern County -118.  35.1
 2 CA      Kern County -118.  35.1
 3 CA      Kern County -118.  35.1
 4 CA      Kern County -118.  35.1
 5 CA      Kern County -118.  35.1
 6 CA      Kern County -118.  35.1
 7 CA      Kern County -118.  35.1
 8 CA      Kern County -118.  35.1
 9 CA      Kern County -118.  35.1
10 CA      Kern County -118.  35.1
# … with 58,175 more rows
```
…
# Data Exploration
.panel1-wind1-auto[

```r
us_wind %>%
* filter(t_state == 'CA')
```
]
 
.panel2-wind1-auto[

```
# A tibble: 9,037 x 4
   t_state t_county    xlong  ylat
   <chr>   <chr>       <dbl> <dbl>
 1 CA      Kern County -118.  35.1
 2 CA      Kern County -118.  35.1
 3 CA      Kern County -118.  35.1
 4 CA      Kern County -118.  35.1
 5 CA      Kern County -118.  35.1
 6 CA      Kern County -118.  35.1
 7 CA      Kern County -118.  35.1
 8 CA      Kern County -118.  35.1
 9 CA      Kern County -118.  35.1
10 CA      Kern County -118.  35.1
# … with 9,027 more rows
```
…
*us_wind
```
]
 
.panel2-wind1-auto[

```
# A tibble: 1 x 1
      n
  <int>
1  9037
```

```
# A tibble: 58,185 x 4
   t_state t_county    xlong  ylat
   <chr>   <chr>       <dbl> <dbl>
 1 CA      Kern County -118.  35.1
 2 CA      Kern County -118.  35.1
 3 CA      Kern County -118.  35.1
 4 CA      Kern County -118.  35.1
 5 CA      Kern County -118.  35.1
 6 CA      Kern County -118.  35.1
 7 CA      Kern County -118.  35.1
 8 CA      Kern County -118.  35.1
 9 CA      Kern County -118.  35.1
10 CA      Kern County -118.  35.1
# … with 58,175 more rows
```
…
.panel2-wind1-auto[

```
# A tibble: 1 x 1
      n
  <int>
1  9037
```

```
# A tibble: 58,185 x 4
# Groups:   t_state [45]
   t_state t_county    xlong  ylat
   <chr>   <chr>       <dbl> <dbl>
 1 CA      Kern County -118.  35.1
 2 CA      Kern County -118.  35.1
 3 CA      Kern County -118.  35.1
 4 CA      Kern County -118.  35.1
 5 CA      Kern County -118.  35.1
 6 CA      Kern County -118.  35.1
 7 CA      Kern County -118.  35.1
 8 CA      Kern County -118.  35.1
 9 CA      Kern County -118.  35.1
10 CA      Kern County -118.  35.1
# … with 58,175 more rows
```
…
.panel2-wind1-auto[

```
# A tibble: 1 x 1
      n
  <int>
1  9037
```

```
# A tibble: 45 x 2
   t_state     n
   <chr>   <int>
 1 AK        141
 2 AR          1
 3 AZ        144
 4 CA       9037
 5 CO       2278
 6 CT          3
 7 DE          1
 8 FL          1
 9 GU          1
10 HI        124
# … with 35 more rows
```
…
.panel2-wind1-auto[

```
# A tibble: 1 x 1
      n
  <int>
1  9037
```

```
# A tibble: 45 x 2
   t_state     n
   <chr>   <int>
 1 TX      13232
 2 CA       9037
 3 IA       4280
 4 OK       3821
 5 KS       2898
 6 IL       2602
 7 MN       2547
 8 CO       2278
 9 OR       1868
10 WA       1744
# … with 35 more rows
```
…
count: false
 
#Extending the Wind Table
.panel1-wind2-auto[

```r
*us_wind
```
]
 
.panel2-wind2-auto[

```
# A tibble: 58,185 x 4
   t_state t_county    xlong  ylat
   <chr>   <chr>       <dbl> <dbl>
 1 CA      Kern County -118.  35.1
 2 CA      Kern County -118.  35.1
 3 CA      Kern County -118.  35.1
 4 CA      Kern County -118.  35.1
 5 CA      Kern County -118.  35.1
 6 CA      Kern County -118.  35.1
 7 CA      Kern County -118.  35.1
 8 CA      Kern County -118.  35.1
 9 CA      Kern County -118.  35.1
10 CA      Kern County -118.  35.1
# … with 58,175 more rows
```
…
#Extending the Wind Table
.panel1-wind2-auto[

```r
us_wind %>%
* filter(!t_state %in% c("AK", "PR", "HI", "GU"))
```
]
 
.panel2-wind2-auto[

```
# A tibble: 57,856 x 4
   t_state t_county    xlong  ylat
   <chr>   <chr>       <dbl> <dbl>
 1 CA      Kern County -118.  35.1
 2 CA      Kern County -118.  35.1
 3 CA      Kern County -118.  35.1
 4 CA      Kern County -118.  35.1
 5 CA      Kern County -118.  35.1
 6 CA      Kern County -118.  35.1
 7 CA      Kern County -118.  35.1
 8 CA      Kern County -118.  35.1
 9 CA      Kern County -118.  35.1
10 CA      Kern County -118.  35.1
# … with 57,846 more rows
```
…
count: false
 
#Extending the Wind Table...
.panel1-wind3-auto[

```r
*us_wind
```
]
 
.panel2-wind3-auto[

```
# A tibble: 58,185 x 4
   t_state t_county    xlong  ylat
   <chr>   <chr>       <dbl> <dbl>
 1 CA      Kern County -118.  35.1
 2 CA      Kern County -118.  35.1
 3 CA      Kern County -118.  35.1
 4 CA      Kern County -118.  35.1
 5 CA      Kern County -118.  35.1
 6 CA      Kern County -118.  35.1
 7 CA      Kern County -118.  35.1
 8 CA      Kern County -118.  35.1
 9 CA      Kern County -118.  35.1
10 CA      Kern County -118.  35.1
# … with 58,175 more rows
```
…
#Extending the Wind Table...
.panel1-wind3-auto[

```r
us_wind %>%
* filter(!t_state %in% c("AK", "PR", "HI", "GU"))
```
]
 
.panel2-wind3-auto[

```
# A tibble: 57,856 x 4
   t_state t_county    xlong  ylat
   <chr>   <chr>       <dbl> <dbl>
 1 CA      Kern County -118.  35.1
 2 CA      Kern County -118.  35.1
 3 CA      Kern County -118.  35.1
 4 CA      Kern County -118.  35.1
 5 CA      Kern County -118.  35.1
 6 CA      Kern County -118.  35.1
 7 CA      Kern County -118.  35.1
 8 CA      Kern County -118.  35.1
 9 CA      Kern County -118.  35.1
10 CA      Kern County -118.  35.1
# … with 57,846 more rows
```
…
#Extending the Wind Table...
.panel1-wind3-auto[

```r
us_wind %>%
  filter(!t_state %in% c("AK", "PR", "HI", "GU")) %>%
* group_by(t_state)
```
]
 
.panel2-wind3-auto[

```
# A tibble: 57,856 x 4
# Groups:   t_state [41]
   t_state t_county    xlong  ylat
   <chr>   <chr>       <dbl> <dbl>
 1 CA      Kern County -118.  35.1
 2 CA      Kern County -118.  35.1
 3 CA      Kern County -118.  35.1
 4 CA      Kern County -118.  35.1
 5 CA      Kern County -118.  35.1
 6 CA      Kern County -118.  35.1
 7 CA      Kern County -118.  35.1
 8 CA      Kern County -118.  35.1
 9 CA      Kern County -118.  35.1
10 CA      Kern County -118.  35.1
# … with 57,846 more rows
```
…
#Extending the Wind Table...
.panel1-wind3-auto[

```r
us_wind %>%
  filter(!t_state %in% c("AK", "PR", "HI", "GU")) %>%
  group_by(t_state) %>%
* summarise(n = n())
```
]
 
.panel2-wind3-auto[

```
# A tibble: 41 x 2
   t_state     n
   <chr>   <int>
 1 AR          1
 2 AZ        144
 3 CA       9037
 4 CO       2278
 5 CT          3
 6 DE          1
 7 FL          1
 8 IA       4280
 9 ID        541
10 IL       2602
# … with 31 more rows
```
…
```r
USAboundaries::us_states(resolution = "low") %>%
  select(state_abbr) ->
  states

*us_wind
```
]
 
.panel2-wind4-auto[

```
# A tibble: 58,185 x 4
   t_state t_county    xlong  ylat
   <chr>   <chr>       <dbl> <dbl>
 1 CA      Kern County -118.  35.1
 2 CA      Kern County -118.  35.1
 3 CA      Kern County -118.  35.1
 4 CA      Kern County -118.  35.1
 5 CA      Kern County -118.  35.1
 6 CA      Kern County -118.  35.1
 7 CA      Kern County -118.  35.1
 8 CA      Kern County -118.  35.1
 9 CA      Kern County -118.  35.1
10 CA      Kern County -118.  35.1
# … with 58,175 more rows
```
…
```r
USAboundaries::us_states(resolution = "low") %>%
  select(state_abbr) ->
  states

us_wind %>%
* filter(!t_state %in% c("AK", "PR", "HI", "GU"))
```
]
 
.panel2-wind4-auto[

```
# A tibble: 57,856 x 4
   t_state t_county    xlong  ylat
   <chr>   <chr>       <dbl> <dbl>
 1 CA      Kern County -118.  35.1
 2 CA      Kern County -118.  35.1
 3 CA      Kern County -118.  35.1
 4 CA      Kern County -118.  35.1
 5 CA      Kern County -118.  35.1
 6 CA      Kern County -118.  35.1
 7 CA      Kern County -118.  35.1
 8 CA      Kern County -118.  35.1
 9 CA      Kern County -118.  35.1
10 CA      Kern County -118.  35.1
# … with 57,846 more rows
```
…
```r
USAboundaries::us_states(resolution = "low") %>%
  select(state_abbr) ->
  states

us_wind %>%
  filter(!t_state %in% c("AK", "PR", "HI", "GU")) %>%
* select(t_state)
```
]
 
.panel2-wind4-auto[

```
# A tibble: 57,856 x 1
   t_state
   <chr>  
 1 CA     
 2 CA     
 3 CA     
 4 CA     
 5 CA     
 6 CA     
 7 CA     
 8 CA     
 9 CA     
10 CA     
# … with 57,846 more rows
```
…
us_wind %>%
  filter(!t_state %in% c("AK", "PR", "HI", "GU")) %>%
  select(t_state) %>%
* group_by(t_state)
```
]
 
.panel2-wind4-auto[

```
# A tibble: 57,856 x 1
# Groups:   t_state [41]
   t_state
   <chr>  
 1 CA     
 2 CA     
 3 CA     
 4 CA     
 5 CA     
 6 CA     
 7 CA     
 8 CA     
 9 CA     
10 CA     
# … with 57,846 more rows
```
…
us_wind %>%
  filter(!t_state %in% c("AK", "PR", "HI", "GU")) %>%
  select(t_state) %>%
  group_by(t_state) %>%
* summarise(n = n())
```
]
 
.panel2-wind4-auto[

```
# A tibble: 41 x 2
   t_state     n
   <chr>   <int>
 1 AR          1
 2 AZ        144
 3 CA       9037
 4 CO       2278
 5 CT          3
 6 DE          1
 7 FL          1
 8 IA       4280
 9 ID        541
10 IL       2602
# … with 31 more rows
```
…
us_wind %>%
  filter(!t_state %in% c("AK", "PR", "HI", "GU")) %>%
  select(t_state) %>%
  group_by(t_state) %>%
  summarise(n = n()) %>%
* inner_join(states, by = c("t_state" = "state_abbr" ))
```
]
 
.panel2-wind4-auto[

```
# A tibble: 41 x 3
   t_state     n                                                        geometry
   <chr>   <int>                                              <MULTIPOLYGON [°]>
 1 AR          1 (((-94.61792 36.49941, -94.3612 36.4996, -94.07709 36.49898, -…
 2 AZ        144 (((-114.7997 32.59362, -114.8094 32.61712, -114.7649 32.64939,…
 3 CA       9037 (((-118.594 33.4672, -118.4848 33.48748, -118.3703 33.40928, -…
 4 CO       2278 (((-109.06 38.49999, -109.06 38.49999, -109.0515 39.12609, -10…
 5 CT          3 (((-73.69594 41.11526, -73.48271 41.21276, -73.55096 41.29542,…
 6 DE          1 (((-75.77379 39.7222, -75.75323 39.75799, -75.71706 39.79232, …
 7 FL          1 (((-81.81169 24.56874, -81.75127 24.65352, -81.67234 24.69951,…
 8 IA       4280 (((-96.62187 42.77925, -96.57794 42.82764, -96.53785 42.87847,…
 9 ID        541 (((-117.243 44.39097, -117.2151 44.42716, -117.2259 44.47939, …
10 IL       2602 (((-91.50617 40.20064, -91.49696 40.2487, -91.49289 40.26992, …
# … with 31 more rows
```
…
.panel2-wind4-auto[

```
Simple feature collection with 41 features and 2 fields
Geometry type: MULTIPOLYGON
Dimension:     XY
Bounding box:  xmin: -124.7258 ymin: 24.49813 xmax: -66.9499 ymax: 49.38436
Geodetic CRS:  WGS 84
# A tibble: 41 x 3
   t_state     n                                                        geometry
   <chr>   <int>                                              <MULTIPOLYGON [°]>
 1 AR          1 (((-94.61792 36.49941, -94.3612 36.4996, -94.07709 36.49898, -…
 2 AZ        144 (((-114.7997 32.59362, -114.8094 32.61712, -114.7649 32.64939,…
 3 CA       9037 (((-118.594 33.4672, -118.4848 33.48748, -118.3703 33.40928, -…
 4 CO       2278 (((-109.06 38.49999, -109.06 38.49999, -109.0515 39.12609, -10…
 5 CT          3 (((-73.69594 41.11526, -73.48271 41.21276, -73.55096 41.29542,…
 6 DE          1 (((-75.77379 39.7222, -75.75323 39.75799, -75.71706 39.79232, …
 7 FL          1 (((-81.81169 24.56874, -81.75127 24.65352, -81.67234 24.69951,…
 8 IA       4280 (((-96.62187 42.77925, -96.57794 42.82764, -96.53785 42.87847,…
 9 ID        541 (((-117.243 44.39097, -117.2151 44.42716, -117.2259 44.47939, …
10 IL       2602 (((-91.50617 40.20064, -91.49696 40.2487, -91.49289 40.26992, …
# … with 31 more rows
```
…
.panel2-wind4-auto[

```
Simple feature collection with 41 features and 4 fields
Geometry type: MULTIPOLYGON
Dimension:     XY
Bounding box:  xmin: -124.7258 ymin: 24.49813 xmax: -66.9499 ymax: 49.38436
Geodetic CRS:  WGS 84
# A tibble: 41 x 5
   t_state     n                                        geometry   area  perArea
 * <chr>   <int>                              <MULTIPOLYGON [°]>  <dbl>    <dbl>
 1 AR          1 (((-94.61792 36.49941, -94.3612 36.4996, -94.0… 1.38e5  7.26e-6
 2 AZ        144 (((-114.7997 32.59362, -114.8094 32.61712, -11… 2.95e5  4.88e-4
 3 CA       9037 (((-118.594 33.4672, -118.4848 33.48748, -118.… 4.10e5  2.20e-2
 4 CO       2278 (((-109.06 38.49999, -109.06 38.49999, -109.05… 2.69e5  8.46e-3
 5 CT          3 (((-73.69594 41.11526, -73.48271 41.21276, -73… 1.29e4  2.32e-4
 6 DE          1 (((-75.77379 39.7222, -75.75323 39.75799, -75.… 5.32e3  1.88e-4
 7 FL          1 (((-81.81169 24.56874, -81.75127 24.65352, -81… 1.54e5  6.48e-6
 8 IA       4280 (((-96.62187 42.77925, -96.57794 42.82764, -96… 1.45e5  2.94e-2
 9 ID        541 (((-117.243 44.39097, -117.2151 44.42716, -117… 2.16e5  2.50e-3
10 IL       2602 (((-91.50617 40.20064, -91.49696 40.2487, -91.… 1.46e5  1.78e-2
# … with 31 more rows
```
…
count: false
 
#Predicates...
.panel1-kern-wind-auto[

```r
*us_wind
```
]
 
.panel2-kern-wind-auto[

```
# A tibble: 58,185 x 4
   t_state t_county    xlong  ylat
   <chr>   <chr>       <dbl> <dbl>
 1 CA      Kern County -118.  35.1
 2 CA      Kern County -118.  35.1
 3 CA      Kern County -118.  35.1
 4 CA      Kern County -118.  35.1
 5 CA      Kern County -118.  35.1
 6 CA      Kern County -118.  35.1
 7 CA      Kern County -118.  35.1
 8 CA      Kern County -118.  35.1
 9 CA      Kern County -118.  35.1
10 CA      Kern County -118.  35.1
# … with 58,175 more rows
```
…
.panel2-kern-wind-auto[

```
Simple feature collection with 58185 features and 2 fields
Geometry type: POINT
Dimension:     XY
Bounding box:  xmin: -171.7131 ymin: 13.38938 xmax: 144.7227 ymax: 66.8399
Geodetic CRS:  NAD83
# A tibble: 58,185 x 3
   t_state t_county                geometry
 * <chr>   <chr>                <POINT [°]>
 1 CA      Kern County (-118.3607 35.08378)
 2 CA      Kern County (-118.3612 35.08151)
 3 CA      Kern County (-118.3604 35.08471)
 4 CA      Kern County  (-118.364 35.07942)
 5 CA      Kern County (-118.3543 35.08559)
 6 CA      Kern County  (-118.3513 35.0914)
 7 CA      Kern County (-118.3576 35.08761)
 8 CA      Kern County  (-118.3513 35.0901)
 9 CA      Kern County (-118.3576 35.08464)
10 CA      Kern County (-118.3659 35.07762)
# … with 58,175 more rows
```
…
.panel2-kern-wind-auto[

```
Simple feature collection with 4564 features and 2 fields
Geometry type: POINT
Dimension:     XY
Bounding box:  xmin: -118.4873 ymin: 34.8717 xmax: -118.1553 ymax: 35.7048
Geodetic CRS:  NAD83
# A tibble: 4,564 x 3
   t_state t_county                geometry
 * <chr>   <chr>                <POINT [°]>
 1 CA      Kern County (-118.3607 35.08378)
 2 CA      Kern County (-118.3612 35.08151)
 3 CA      Kern County (-118.3604 35.08471)
 4 CA      Kern County  (-118.364 35.07942)
 5 CA      Kern County (-118.3543 35.08559)
 6 CA      Kern County  (-118.3513 35.0914)
 7 CA      Kern County (-118.3576 35.08761)
 8 CA      Kern County  (-118.3513 35.0901)
 9 CA      Kern County (-118.3576 35.08464)
10 CA      Kern County (-118.3659 35.07762)
# … with 4,554 more rows
```
…
