Geography 13
…
count: false
 
#Question 1: Close...
.panel1-q11-auto[

```r
*covid
```
]
 
.panel2-q11-auto[

```
# A tibble: 1,472,337 x 6
   date       county      state      fips  cases deaths
   <date>     <chr>       <chr>      <chr> <dbl>  <dbl>
 1 2020-01-21 Snohomish   Washington 53061     1      0
 2 2020-01-22 Snohomish   Washington 53061     1      0
 3 2020-01-23 Snohomish   Washington 53061     1      0
 4 2020-01-24 Cook        Illinois   17031     1      0
 5 2020-01-24 Snohomish   Washington 53061     1      0
 6 2020-01-25 Orange      California 06059     1      0
 7 2020-01-25 Cook        Illinois   17031     1      0
 8 2020-01-25 Snohomish   Washington 53061     1      0
 9 2020-01-26 Maricopa    Arizona    04013     1      0
10 2020-01-26 Los Angeles California 06037     1      0
# … with 1,472,327 more rows
```
…
#Question 1: Close...
.panel1-q11-auto[

```r
covid %>%
* filter(date == max(date))
```
]
 
.panel2-q11-auto[

```
# A tibble: 3,246 x 6
   date       county   state   fips  cases deaths
   <date>     <chr>    <chr>   <chr> <dbl>  <dbl>
 1 2021-06-30 Autauga  Alabama 01001  7257    113
 2 2021-06-30 Baldwin  Alabama 01003 22027    315
 3 2021-06-30 Barbour  Alabama 01005  2346     60
 4 2021-06-30 Bibb     Alabama 01007  2693     64
 5 2021-06-30 Blount   Alabama 01009  6987    139
 6 2021-06-30 Bullock  Alabama 01011  1249     42
 7 2021-06-30 Butler   Alabama 01013  2262     71
 8 2021-06-30 Calhoun  Alabama 01015 14776    330
 9 2021-06-30 Chambers Alabama 01017  3736    123
10 2021-06-30 Cherokee Alabama 01019  1874     45
# … with 3,236 more rows
```
…
#Question 1: Close...
.panel1-q11-auto[

```r
covid %>%
  filter(date == max(date)) %>%
* group_by(state)
```
]
 
.panel2-q11-auto[

```
# A tibble: 3,246 x 6
# Groups:   state [55]
   date       county   state   fips  cases deaths
   <date>     <chr>    <chr>   <chr> <dbl>  <dbl>
 1 2021-06-30 Autauga  Alabama 01001  7257    113
 2 2021-06-30 Baldwin  Alabama 01003 22027    315
 3 2021-06-30 Barbour  Alabama 01005  2346     60
 4 2021-06-30 Bibb     Alabama 01007  2693     64
 5 2021-06-30 Blount   Alabama 01009  6987    139
 6 2021-06-30 Bullock  Alabama 01011  1249     42
 7 2021-06-30 Butler   Alabama 01013  2262     71
 8 2021-06-30 Calhoun  Alabama 01015 14776    330
 9 2021-06-30 Chambers Alabama 01017  3736    123
10 2021-06-30 Cherokee Alabama 01019  1874     45
# … with 3,236 more rows
```
…
#Question 1: Close...
.panel1-q11-auto[

```r
covid %>%
  filter(date == max(date)) %>%
  group_by(state) %>%
* summarize(cases = sum(cases, na.rm = TRUE))
```
]
 
.panel2-q11-auto[

```
# A tibble: 55 x 2
   state                  cases
   <chr>                  <dbl>
 1 Alabama               550983
 2 Alaska                 70669
 3 Arizona               894875
 4 Arkansas              349385
 5 California           3816704
 6 Colorado              560927
 7 Connecticut           349352
 8 Delaware              109744
 9 District of Columbia   49335
10 Florida              2321929
# … with 45 more rows
```
…
```r
covid %>%
  filter(date == max(date)) %>%
  group_by(state) %>%
  summarize(cases = sum(cases, na.rm = TRUE)) %>%
* ungroup()
```
]
 
.panel2-q11-auto[

```
# A tibble: 55 x 2
   state                  cases
   <chr>                  <dbl>
 1 Alabama               550983
 2 Alaska                 70669
 3 Arizona               894875
 4 Arkansas              349385
 5 California           3816704
 6 Colorado              560927
 7 Connecticut           349352
 8 Delaware              109744
 9 District of Columbia   49335
10 Florida              2321929
# … with 45 more rows
```
…
*covid
```
]
 
.panel2-q11-auto[

```
[1] "California"   "Texas"        "Florida"      "New York"     "Illinois"    
[6] "Pennsylvania"
```

```
# A tibble: 1,472,337 x 6
   date       county      state      fips  cases deaths
   <date>     <chr>       <chr>      <chr> <dbl>  <dbl>
 1 2020-01-21 Snohomish   Washington 53061     1      0
 2 2020-01-22 Snohomish   Washington 53061     1      0
 3 2020-01-23 Snohomish   Washington 53061     1      0
 4 2020-01-24 Cook        Illinois   17031     1      0
 5 2020-01-24 Snohomish   Washington 53061     1      0
 6 2020-01-25 Orange      California 06059     1      0
 7 2020-01-25 Cook        Illinois   17031     1      0
 8 2020-01-25 Snohomish   Washington 53061     1      0
 9 2020-01-26 Maricopa    Arizona    04013     1      0
10 2020-01-26 Los Angeles California 06037     1      0
# … with 1,472,327 more rows
```
…
covid %>%
* filter(state %in% c("California", "Florida", "Texas", "New York", "Georgia", "Illinois"))
```
]
 
.panel2-q11-auto[

```
[1] "California"   "Texas"        "Florida"      "New York"     "Illinois"    
[6] "Pennsylvania"
```

```
# A tibble: 320,407 x 6
   date       county      state      fips  cases deaths
   <date>     <chr>       <chr>      <chr> <dbl>  <dbl>
 1 2020-01-24 Cook        Illinois   17031     1      0
 2 2020-01-25 Orange      California 06059     1      0
 3 2020-01-25 Cook        Illinois   17031     1      0
 4 2020-01-26 Los Angeles California 06037     1      0
 5 2020-01-26 Orange      California 06059     1      0
 6 2020-01-26 Cook        Illinois   17031     1      0
 7 2020-01-27 Los Angeles California 06037     1      0
 8 2020-01-27 Orange      California 06059     1      0
 9 2020-01-27 Cook        Illinois   17031     1      0
10 2020-01-28 Los Angeles California 06037     1      0
# … with 320,397 more rows
```
…
---
count: false
 
#Question 1: State Level
.panel1-q1-auto[

```r
*covid
```
]
 
.panel2-q1-auto[

```
# A tibble: 1,472,337 x 6
   date       county      state      fips  cases deaths
   <date>     <chr>       <chr>      <chr> <dbl>  <dbl>
 1 2020-01-21 Snohomish   Washington 53061     1      0
 2 2020-01-22 Snohomish   Washington 53061     1      0
 3 2020-01-23 Snohomish   Washington 53061     1      0
 4 2020-01-24 Cook        Illinois   17031     1      0
 5 2020-01-24 Snohomish   Washington 53061     1      0
 6 2020-01-25 Orange      California 06059     1      0
 7 2020-01-25 Cook        Illinois   17031     1      0
 8 2020-01-25 Snohomish   Washington 53061     1      0
 9 2020-01-26 Maricopa    Arizona    04013     1      0
10 2020-01-26 Los Angeles California 06037     1      0
# … with 1,472,327 more rows
```
…
#Question 1: State Level
.panel1-q1-auto[

```r
covid %>%
* filter(date == max(date))
```
]
 
.panel2-q1-auto[

```
# A tibble: 3,246 x 6
   date       county   state   fips  cases deaths
   <date>     <chr>    <chr>   <chr> <dbl>  <dbl>
 1 2021-06-30 Autauga  Alabama 01001  7257    113
 2 2021-06-30 Baldwin  Alabama 01003 22027    315
 3 2021-06-30 Barbour  Alabama 01005  2346     60
 4 2021-06-30 Bibb     Alabama 01007  2693     64
 5 2021-06-30 Blount   Alabama 01009  6987    139
 6 2021-06-30 Bullock  Alabama 01011  1249     42
 7 2021-06-30 Butler   Alabama 01013  2262     71
 8 2021-06-30 Calhoun  Alabama 01015 14776    330
 9 2021-06-30 Chambers Alabama 01017  3736    123
10 2021-06-30 Cherokee Alabama 01019  1874     45
# … with 3,236 more rows
```
…
#Question 1: State Level
.panel1-q1-auto[

```r
covid %>%
  filter(date == max(date)) %>%
* group_by(state)
```
]
 
.panel2-q1-auto[

```
# A tibble: 3,246 x 6
# Groups:   state [55]
   date       county   state   fips  cases deaths
   <date>     <chr>    <chr>   <chr> <dbl>  <dbl>
 1 2021-06-30 Autauga  Alabama 01001  7257    113
 2 2021-06-30 Baldwin  Alabama 01003 22027    315
 3 2021-06-30 Barbour  Alabama 01005  2346     60
 4 2021-06-30 Bibb     Alabama 01007  2693     64
 5 2021-06-30 Blount   Alabama 01009  6987    139
 6 2021-06-30 Bullock  Alabama 01011  1249     42
 7 2021-06-30 Butler   Alabama 01013  2262     71
 8 2021-06-30 Calhoun  Alabama 01015 14776    330
 9 2021-06-30 Chambers Alabama 01017  3736    123
10 2021-06-30 Cherokee Alabama 01019  1874     45
# … with 3,236 more rows
```
…
#Question 1: State Level
.panel1-q1-auto[

```r
covid %>%
  filter(date == max(date)) %>%
  group_by(state) %>%
* summarize(cases = sum(cases, na.rm = TRUE))
```
]
 
.panel2-q1-auto[

```
# A tibble: 55 x 2
   state                  cases
   <chr>                  <dbl>
 1 Alabama               550983
 2 Alaska                 70669
 3 Arizona               894875
 4 Arkansas              349385
 5 California           3816704
 6 Colorado              560927
 7 Connecticut           349352
 8 Delaware              109744
 9 District of Columbia   49335
10 Florida              2321929
# … with 45 more rows
```
…
```r
covid %>%
  filter(date == max(date)) %>%
  group_by(state) %>%
  summarize(cases = sum(cases, na.rm = TRUE)) %>%
* ungroup()
```
]
 
.panel2-q1-auto[

```
# A tibble: 55 x 2
   state                  cases
   <chr>                  <dbl>
 1 Alabama               550983
 2 Alaska                 70669
 3 Arizona               894875
 4 Arkansas              349385
 5 California           3816704
 6 Colorado              560927
 7 Connecticut           349352
 8 Delaware              109744
 9 District of Columbia   49335
10 Florida              2321929
# … with 45 more rows
```
…
*covid
```
]
 
.panel2-q1-auto[

```
# A tibble: 1,472,337 x 6
   date       county      state      fips  cases deaths
   <date>     <chr>       <chr>      <chr> <dbl>  <dbl>
 1 2020-01-21 Snohomish   Washington 53061     1      0
 2 2020-01-22 Snohomish   Washington 53061     1      0
 3 2020-01-23 Snohomish   Washington 53061     1      0
 4 2020-01-24 Cook        Illinois   17031     1      0
 5 2020-01-24 Snohomish   Washington 53061     1      0
 6 2020-01-25 Orange      California 06059     1      0
 7 2020-01-25 Cook        Illinois   17031     1      0
 8 2020-01-25 Snohomish   Washington 53061     1      0
 9 2020-01-26 Maricopa    Arizona    04013     1      0
10 2020-01-26 Los Angeles California 06037     1      0
# … with 1,472,327 more rows
```
…
covid %>%
* filter(state %in% top_states)
```
]
 
.panel2-q1-auto[

```
# A tibble: 277,440 x 6
   date       county      state      fips  cases deaths
   <date>     <chr>       <chr>      <chr> <dbl>  <dbl>
 1 2020-01-24 Cook        Illinois   17031     1      0
 2 2020-01-25 Orange      California 06059     1      0
 3 2020-01-25 Cook        Illinois   17031     1      0
 4 2020-01-26 Los Angeles California 06037     1      0
 5 2020-01-26 Orange      California 06059     1      0
 6 2020-01-26 Cook        Illinois   17031     1      0
 7 2020-01-27 Los Angeles California 06037     1      0
 8 2020-01-27 Orange      California 06059     1      0
 9 2020-01-27 Cook        Illinois   17031     1      0
10 2020-01-28 Los Angeles California 06037     1      0
# … with 277,430 more rows
```
…
covid %>%
  filter(state %in% top_states) %>%
* group_by(state, date)
```
]
 
.panel2-q1-auto[

```
# A tibble: 277,440 x 6
# Groups:   state, date [3,008]
   date       county      state      fips  cases deaths
   <date>     <chr>       <chr>      <chr> <dbl>  <dbl>
 1 2020-01-24 Cook        Illinois   17031     1      0
 2 2020-01-25 Orange      California 06059     1      0
 3 2020-01-25 Cook        Illinois   17031     1      0
 4 2020-01-26 Los Angeles California 06037     1      0
 5 2020-01-26 Orange      California 06059     1      0
 6 2020-01-26 Cook        Illinois   17031     1      0
 7 2020-01-27 Los Angeles California 06037     1      0
 8 2020-01-27 Orange      California 06059     1      0
 9 2020-01-27 Cook        Illinois   17031     1      0
10 2020-01-28 Los Angeles California 06037     1      0
# … with 277,430 more rows
```
…
covid %>%
  filter(state %in% top_states) %>%
  group_by(state, date) %>%
* summarise(cases = sum(cases))
```
]
 
.panel2-q1-auto[

```
# A tibble: 3,008 x 3
# Groups:   state [6]
   state      date       cases
   <chr>      <date>     <dbl>
 1 California 2020-01-25     1
 2 California 2020-01-26     2
 3 California 2020-01-27     2
 4 California 2020-01-28     2
 5 California 2020-01-29     2
 6 California 2020-01-30     2
 7 California 2020-01-31     3
 8 California 2020-02-01     3
 9 California 2020-02-02     6
10 California 2020-02-03     6
# … with 2,998 more rows
```
…
covid %>%
  filter(state %in% top_states) %>%
  group_by(state, date) %>%
  summarise(cases = sum(cases)) %>%
* ungroup()
```
]
 
.panel2-q1-auto[

```
# A tibble: 3,008 x 3
   state      date       cases
   <chr>      <date>     <dbl>
 1 California 2020-01-25     1
 2 California 2020-01-26     2
 3 California 2020-01-27     2
 4 California 2020-01-28     2
 5 California 2020-01-29     2
 6 California 2020-01-30     2
 7 California 2020-01-31     3
 8 California 2020-02-01     3
 9 California 2020-02-02     6
10 California 2020-02-03     6
# … with 2,998 more rows
```
…
count: false
 
# Question 2: National Level
.panel1-q2-auto[

```r
*covid
```
]
 
.panel2-q2-auto[

```
# A tibble: 1,472,337 x 6
   date       county      state      fips  cases deaths
   <date>     <chr>       <chr>      <chr> <dbl>  <dbl>
 1 2020-01-21 Snohomish   Washington 53061     1      0
 2 2020-01-22 Snohomish   Washington 53061     1      0
 3 2020-01-23 Snohomish   Washington 53061     1      0
 4 2020-01-24 Cook        Illinois   17031     1      0
 5 2020-01-24 Snohomish   Washington 53061     1      0
 6 2020-01-25 Orange      California 06059     1      0
 7 2020-01-25 Cook        Illinois   17031     1      0
 8 2020-01-25 Snohomish   Washington 53061     1      0
 9 2020-01-26 Maricopa    Arizona    04013     1      0
10 2020-01-26 Los Angeles California 06037     1      0
# … with 1,472,327 more rows
```
…
# Question 2: National Level
.panel1-q2-auto[

```r
covid %>%
* group_by(date)
```
]
 
.panel2-q2-auto[

```
# A tibble: 1,472,337 x 6
# Groups:   date [527]
   date       county      state      fips  cases deaths
   <date>     <chr>       <chr>      <chr> <dbl>  <dbl>
 1 2020-01-21 Snohomish   Washington 53061     1      0
 2 2020-01-22 Snohomish   Washington 53061     1      0
 3 2020-01-23 Snohomish   Washington 53061     1      0
 4 2020-01-24 Cook        Illinois   17031     1      0
 5 2020-01-24 Snohomish   Washington 53061     1      0
 6 2020-01-25 Orange      California 06059     1      0
 7 2020-01-25 Cook        Illinois   17031     1      0
 8 2020-01-25 Snohomish   Washington 53061     1      0
 9 2020-01-26 Maricopa    Arizona    04013     1      0
10 2020-01-26 Los Angeles California 06037     1      0
# … with 1,472,327 more rows
```
…
# Question 2: National Level
.panel1-q2-auto[

```r
covid %>%
  group_by(date) %>%
* summarize(cases = sum(cases))
```
]
 
.panel2-q2-auto[

```
# A tibble: 527 x 2
   date       cases
   <date>     <dbl>
 1 2020-01-21     1
 2 2020-01-22     1
 3 2020-01-23     1
 4 2020-01-24     2
 5 2020-01-25     3
 6 2020-01-26     5
 7 2020-01-27     5
 8 2020-01-28     5
 9 2020-01-29     5
10 2020-01-30     6
# … with 517 more rows
```
…
count: false
 
#Pivot within workflow...
.panel1-pivot-long-auto[

```r
*gapminder
```
]
 
.panel2-pivot-long-auto[

```
# A tibble: 1,704 x 6
   country     continent  year lifeExp      pop gdpPercap
   <fct>       <fct>     <int>   <dbl>    <int>     <dbl>
 1 Afghanistan Asia       1952    28.8  8425333      779.
 2 Afghanistan Asia       1957    30.3  9240934      821.
 3 Afghanistan Asia       1962    32.0 10267083      853.
 4 Afghanistan Asia       1967    34.0 11537966      836.
 5 Afghanistan Asia       1972    36.1 13079460      740.
 6 Afghanistan Asia       1977    38.4 14880372      786.
 7 Afghanistan Asia       1982    39.9 12881816      978.
 8 Afghanistan Asia       1987    40.8 13867957      852.
 9 Afghanistan Asia       1992    41.7 16317921      649.
10 Afghanistan Asia       1997    41.8 22227415      635.
# … with 1,694 more rows
```
…
#Pivot within workflow...
.panel1-pivot-long-auto[

```r
gapminder %>%
* filter(country %in%
*          c("Canada", "United States", "Mexico", "Nicaragua", "Honduras"))
```
]
 
.panel2-pivot-long-auto[

```
# A tibble: 60 x 6
   country continent  year lifeExp      pop gdpPercap
   <fct>   <fct>     <int>   <dbl>    <int>     <dbl>
 1 Canada  Americas   1952    68.8 14785584    11367.
 2 Canada  Americas   1957    70.0 17010154    12490.
 3 Canada  Americas   1962    71.3 18985849    13462.
 4 Canada  Americas   1967    72.1 20819767    16077.
 5 Canada  Americas   1972    72.9 22284500    18971.
 6 Canada  Americas   1977    74.2 23796400    22091.
 7 Canada  Americas   1982    75.8 25201900    22899.
 8 Canada  Americas   1987    76.9 26549700    26627.
 9 Canada  Americas   1992    78.0 28523502    26343.
10 Canada  Americas   1997    78.6 30305843    28955.
# … with 50 more rows
```
…
#Pivot within workflow...
.panel1-pivot-long-auto[

```r
gapminder %>%
  filter(country %in%
           c("Canada", "United States", "Mexico", "Nicaragua", "Honduras")) %>%
* select(country, year, lifeExp, gdpPercap)
```
]
 
.panel2-pivot-long-auto[

```
# A tibble: 60 x 4
   country  year lifeExp gdpPercap
   <fct>   <int>   <dbl>     <dbl>
 1 Canada   1952    68.8    11367.
 2 Canada   1957    70.0    12490.
 3 Canada   1962    71.3    13462.
 4 Canada   1967    72.1    16077.
 5 Canada   1972    72.9    18971.
 6 Canada   1977    74.2    22091.
 7 Canada   1982    75.8    22899.
 8 Canada   1987    76.9    26627.
 9 Canada   1992    78.0    26343.
10 Canada   1997    78.6    28955.
# … with 50 more rows
```
…
```r
gapminder %>%
  filter(country %in%
           c("Canada", "United States", "Mexico", "Nicaragua", "Honduras")) %>%
  select(country, year, lifeExp, gdpPercap) %>%
* pivot_longer(cols = c('lifeExp', 'gdpPercap'))
```
]
 
.panel2-pivot-long-auto[

```
# A tibble: 120 x 4
   country  year name        value
   <fct>   <int> <chr>       <dbl>
 1 Canada   1952 lifeExp      68.8
 2 Canada   1952 gdpPercap 11367. 
 3 Canada   1957 lifeExp      70.0
 4 Canada   1957 gdpPercap 12490. 
 5 Canada   1962 lifeExp      71.3
 6 Canada   1962 gdpPercap 13462. 
 7 Canada   1967 lifeExp      72.1
 8 Canada   1967 gdpPercap 16077. 
 9 Canada   1972 lifeExp      72.9
10 Canada   1972 gdpPercap 18971. 
# … with 110 more rows
```
…
count: false
 
#Region/State windmills per km2...
.panel1-wind4-auto[

```r
*us_wind
```
]
 
.panel2-wind4-auto[

```
# A tibble: 57,856 x 2
   case_id t_state
     <dbl> <chr>  
 1 3073429 CA     
 2 3071522 CA     
 3 3073425 CA     
 4 3071569 CA     
 5 3005252 CA     
 6 3003862 CA     
 7 3073370 CA     
 8 3010101 CA     
 9 3073324 CA     
10 3072659 CA     
# … with 57,846 more rows
```
…
#Region/State windmills per km2...
.panel1-wind4-auto[

```r
us_wind %>%
* filter(!t_state %in% c("AK", "PR", "HI", "GU"))
```
]
 
.panel2-wind4-auto[

```
# A tibble: 57,856 x 2
   case_id t_state
     <dbl> <chr>  
 1 3073429 CA     
 2 3071522 CA     
 3 3073425 CA     
 4 3071569 CA     
 5 3005252 CA     
 6 3003862 CA     
 7 3073370 CA     
 8 3010101 CA     
 9 3073324 CA     
10 3072659 CA     
# … with 57,846 more rows
```
…
#Region/State windmills per km2...
.panel1-wind4-auto[

```r
us_wind %>%
  filter(!t_state %in% c("AK", "PR", "HI", "GU")) %>%
* select(t_state)
```
]
 
.panel2-wind4-auto[

```
# A tibble: 57,856 x 1
   t_state
   <chr>  
 1 CA     
 2 CA     
 3 CA     
 4 CA     
 5 CA     
 6 CA     
 7 CA     
 8 CA     
 9 CA     
10 CA     
# … with 57,846 more rows
```
…
#Region/State windmills per km2...
.panel1-wind4-auto[

```r
us_wind %>%
  filter(!t_state %in% c("AK", "PR", "HI", "GU")) %>%
  select(t_state) %>%
* group_by(t_state)
```
]
 
.panel2-wind4-auto[

```
# A tibble: 57,856 x 1
# Groups:   t_state [41]
   t_state
   <chr>  
 1 CA     
 2 CA     
 3 CA     
 4 CA     
 5 CA     
 6 CA     
 7 CA     
 8 CA     
 9 CA     
10 CA     
# … with 57,846 more rows
```
…
