Geography 176A
…
```r
*st_filter(cities, misscount, .predicate = st_within)
```
]
 
.right-panel-q12-auto[

```
Simple feature collection with 3262 features and 3 fields
geometry type:  POINT
dimension:      XY
bbox:           xmin: -112.6693 ymin: 29.2134 xmax: -77.6454 ymax: 48.8571
geographic CRS: WGS 84
# A tibble: 3,262 x 4
   city         state_name population           geometry
 * <chr>        <chr>           <dbl>        <POINT [°]>
 1 Nelson       Wisconsin         351 (-92.0044 44.4214)
 2 Fennimore    Wisconsin        2482 (-90.6491 42.9793)
 3 Whitehall    Wisconsin        1583 (-91.3476 44.3705)
 4 River Falls  Wisconsin       15873 (-92.6244 44.8608)
 5 Livingston   Wisconsin         643 (-90.4337 42.9001)
 6 Hillsboro    Wisconsin        1402 (-90.3365 43.6559)
 7 Ferryville   Wisconsin         175 (-91.0935 43.3516)
 8 Eleva        Wisconsin         665 (-91.4705 44.5763)
 9 Independence Wisconsin        1308 (-91.4172 44.3328)
10 Patch Grove  Wisconsin         197 (-90.9725 42.9406)
# … with 3,252 more rows
```
…
```r
st_filter(cities, misscount, .predicate = st_within) %>%  
* group_by(state_name)
```
]
 
.right-panel-q12-auto[

```
Simple feature collection with 3262 features and 3 fields
geometry type:  POINT
dimension:      XY
bbox:           xmin: -112.6693 ymin: 29.2134 xmax: -77.6454 ymax: 48.8571
geographic CRS: WGS 84
# A tibble: 3,262 x 4
# Groups:   state_name [23]
   city         state_name population           geometry
   <chr>        <chr>           <dbl>        <POINT [°]>
 1 Nelson       Wisconsin         351 (-92.0044 44.4214)
 2 Fennimore    Wisconsin        2482 (-90.6491 42.9793)
 3 Whitehall    Wisconsin        1583 (-91.3476 44.3705)
 4 River Falls  Wisconsin       15873 (-92.6244 44.8608)
 5 Livingston   Wisconsin         643 (-90.4337 42.9001)
 6 Hillsboro    Wisconsin        1402 (-90.3365 43.6559)
 7 Ferryville   Wisconsin         175 (-91.0935 43.3516)
 8 Eleva        Wisconsin         665 (-91.4705 44.5763)
 9 Independence Wisconsin        1308 (-91.4172 44.3328)
10 Patch Grove  Wisconsin         197 (-90.9725 42.9406)
# … with 3,252 more rows
```
…
.right-panel-q12-auto[

```
Simple feature collection with 23 features and 2 fields
geometry type:  MULTIPOINT
dimension:      XY
bbox:           xmin: -112.6693 ymin: 29.2134 xmax: -77.6454 ymax: 48.8571
geographic CRS: WGS 84
# A tibble: 23 x 3
   state_name    tot                                                    geometry
   <chr>       <dbl>                                            <MULTIPOINT [°]>
 1 Arkansas    1.15  ((-94.4168 35.2335), (-94.4107 35.1877), (-94.3799 35.0236…
 2 Colorado    0.324 ((-107.092 39.4051), (-107.054 39.6463), (-107.0413 39.366…
 3 Illinois    0.588 ((-91.4277 40.3509), (-91.3829 40.5457), (-91.3798 39.9335…
 4 Indiana     0.453 ((-87.9308 38.1291), (-87.9151 38.2042), (-87.8955 37.9364…
 5 Iowa        0.829 ((-96.3901 42.4959), (-96.3516 42.3975), (-96.3035 42.3158…
 6 Kansas      1.06  ((-102.0078 38.0415), (-101.7784 37.9618), (-101.2587 37.9…
 7 Kentucky    1.78  ((-89.1836 36.565), (-89.102 36.7596), (-89.0822 36.9658),…
 8 Louisiana   2.51  ((-91.7191 31.4436), (-91.6179 30.594), (-91.592 30.7383),…
 9 Minnesota   5.87  ((-95.1303 47.5211), (-95.1162 45.5003), (-95.106 47.8667)…
10 Mississippi 0.296 ((-91.4152 31.496), (-91.3867 31.5437), (-91.3521 31.5751)…
# … with 13 more rows
```
…
##Intersecting Populations
.left-panel-q12-auto[

```r
st_filter(cities, misscount, .predicate = st_within) %>%  
  group_by(state_name) %>%  
  summarize(tot = sum(population)/1e6) %>%  
* st_drop_geometry()
```
]
 
.right-panel-q12-auto[

```
# A tibble: 23 x 2
   state_name    tot
 * <chr>       <dbl>
 1 Arkansas    1.15 
 2 Colorado    0.324
 3 Illinois    0.588
 4 Indiana     0.453
 5 Iowa        0.829
 6 Kansas      1.06 
 7 Kentucky    1.78 
 8 Louisiana   2.51 
 9 Minnesota   5.87 
10 Mississippi 0.296
# … with 13 more rows
```
…
