Geography 13
…
---
count: false
 
# Question 1: Counties with most cases
.panel1-q1-auto[

```r
*covid
```
]
 
.panel2-q1-auto[

```
# A tibble: 97,395 x 6
   date       county   state   fips  cases deaths
   <date>     <chr>    <chr>   <chr> <dbl>  <dbl>
 1 2021-05-31 Autauga  Alabama 01001  7142    110
 2 2021-05-31 Baldwin  Alabama 01003 21620    311
 3 2021-05-31 Barbour  Alabama 01005  2334     59
 4 2021-05-31 Bibb     Alabama 01007  2664     64
 5 2021-05-31 Blount   Alabama 01009  6864    139
 6 2021-05-31 Bullock  Alabama 01011  1233     42
 7 2021-05-31 Butler   Alabama 01013  2219     71
 8 2021-05-31 Calhoun  Alabama 01015 14622    324
 9 2021-05-31 Chambers Alabama 01017  3665    123
10 2021-05-31 Cherokee Alabama 01019  1862     45
# … with 97,385 more rows
```
…
# Question 1: Counties with most cases
.panel1-q1-auto[

```r
covid %>%
* filter(date == max(date))
```
]
 
.panel2-q1-auto[

```
# A tibble: 3,246 x 6
   date       county   state   fips  cases deaths
   <date>     <chr>    <chr>   <chr> <dbl>  <dbl>
 1 2021-06-29 Autauga  Alabama 01001  7247    113
 2 2021-06-29 Baldwin  Alabama 01003 21985    314
 3 2021-06-29 Barbour  Alabama 01005  2345     60
 4 2021-06-29 Bibb     Alabama 01007  2687     64
 5 2021-06-29 Blount   Alabama 01009  6975    139
 6 2021-06-29 Bullock  Alabama 01011  1249     42
 7 2021-06-29 Butler   Alabama 01013  2255     71
 8 2021-06-29 Calhoun  Alabama 01015 14766    330
 9 2021-06-29 Chambers Alabama 01017  3734    124
10 2021-06-29 Cherokee Alabama 01019  1874     45
# … with 3,236 more rows
```
…
# Question 1: Counties with most cases
.panel1-q1-auto[

```r
covid %>%
  filter(date == max(date)) %>%
* arrange(-cases)
```
]
 
.panel2-q1-auto[

```
# A tibble: 3,246 x 6
   date       county         state      fips    cases deaths
   <date>     <chr>          <chr>      <chr>   <dbl>  <dbl>
 1 2021-06-29 Los Angeles    California 06037 1250503  24496
 2 2021-06-29 New York City  New York   <NA>   955505  33415
 3 2021-06-29 Maricopa       Arizona    04013  559688  10276
 4 2021-06-29 Cook           Illinois   17031  556951  11045
 5 2021-06-29 Miami-Dade     Florida    12086  501540   6472
 6 2021-06-29 Harris         Texas      48201  403149   6577
 7 2021-06-29 Dallas         Texas      48113  306108   4121
 8 2021-06-29 Riverside      California 06065  301655   4627
 9 2021-06-29 San Bernardino California 06071  299730   4928
10 2021-06-29 San Diego      California 06073  282480   3780
# … with 3,236 more rows
```
…
# Question 1: Counties with most cases
.panel1-q1-auto[

```r
covid %>%
  filter(date == max(date)) %>%
  arrange(-cases) %>%
* select(county, state, cases)
```
]
 
.panel2-q1-auto[

```
# A tibble: 3,246 x 3
   county         state        cases
   <chr>          <chr>        <dbl>
 1 Los Angeles    California 1250503
 2 New York City  New York    955505
 3 Maricopa       Arizona     559688
 4 Cook           Illinois    556951
 5 Miami-Dade     Florida     501540
 6 Harris         Texas       403149
 7 Dallas         Texas       306108
 8 Riverside      California  301655
 9 San Bernardino California  299730
10 San Diego      California  282480
# … with 3,236 more rows
```
…
---
count: false
 
# Question 2: States with most cases
.panel1-q2-auto[

```r
*covid
```
]
 
.panel2-q2-auto[

```
# A tibble: 97,395 x 6
   date       county   state   fips  cases deaths
   <date>     <chr>    <chr>   <chr> <dbl>  <dbl>
 1 2021-05-31 Autauga  Alabama 01001  7142    110
 2 2021-05-31 Baldwin  Alabama 01003 21620    311
 3 2021-05-31 Barbour  Alabama 01005  2334     59
 4 2021-05-31 Bibb     Alabama 01007  2664     64
 5 2021-05-31 Blount   Alabama 01009  6864    139
 6 2021-05-31 Bullock  Alabama 01011  1233     42
 7 2021-05-31 Butler   Alabama 01013  2219     71
 8 2021-05-31 Calhoun  Alabama 01015 14622    324
 9 2021-05-31 Chambers Alabama 01017  3665    123
10 2021-05-31 Cherokee Alabama 01019  1862     45
# … with 97,385 more rows
```
…
# Question 2: States with most cases
.panel1-q2-auto[

```r
covid %>%
* filter(date == max(date))
```
]
 
.panel2-q2-auto[

```
# A tibble: 3,246 x 6
   date       county   state   fips  cases deaths
   <date>     <chr>    <chr>   <chr> <dbl>  <dbl>
 1 2021-06-29 Autauga  Alabama 01001  7247    113
 2 2021-06-29 Baldwin  Alabama 01003 21985    314
 3 2021-06-29 Barbour  Alabama 01005  2345     60
 4 2021-06-29 Bibb     Alabama 01007  2687     64
 5 2021-06-29 Blount   Alabama 01009  6975    139
 6 2021-06-29 Bullock  Alabama 01011  1249     42
 7 2021-06-29 Butler   Alabama 01013  2255     71
 8 2021-06-29 Calhoun  Alabama 01015 14766    330
 9 2021-06-29 Chambers Alabama 01017  3734    124
10 2021-06-29 Cherokee Alabama 01019  1874     45
# … with 3,236 more rows
```
…
# Question 2: States with most cases
.panel1-q2-auto[

```r
covid %>%
  filter(date == max(date)) %>%
* group_by(state)
```
]
 
.panel2-q2-auto[

```
# A tibble: 3,246 x 6
# Groups:   state [55]
   date       county   state   fips  cases deaths
   <date>     <chr>    <chr>   <chr> <dbl>  <dbl>
 1 2021-06-29 Autauga  Alabama 01001  7247    113
 2 2021-06-29 Baldwin  Alabama 01003 21985    314
 3 2021-06-29 Barbour  Alabama 01005  2345     60
 4 2021-06-29 Bibb     Alabama 01007  2687     64
 5 2021-06-29 Blount   Alabama 01009  6975    139
 6 2021-06-29 Bullock  Alabama 01011  1249     42
 7 2021-06-29 Butler   Alabama 01013  2255     71
 8 2021-06-29 Calhoun  Alabama 01015 14766    330
 9 2021-06-29 Chambers Alabama 01017  3734    124
10 2021-06-29 Cherokee Alabama 01019  1874     45
# … with 3,236 more rows
```
…
# Question 2: States with most cases
.panel1-q2-auto[

```r
covid %>%
  filter(date == max(date)) %>%
  group_by(state) %>%
* summarize(cases = sum(cases, na.rm = TRUE))
```
]
 
.panel2-q2-auto[

```
# A tibble: 55 x 2
   state                  cases
   <chr>                  <dbl>
 1 Alabama               550451
 2 Alaska                 70581
 3 Arizona               894106
 4 Arkansas              348699
 5 California           3818219
 6 Colorado              560407
 7 Connecticut           349301
 8 Delaware              109712
 9 District of Columbia   49347
10 Florida              2321929
# … with 45 more rows
```
…
```r
covid %>%
  filter(date == max(date)) %>%
  group_by(state) %>%
  summarize(cases = sum(cases, na.rm = TRUE)) %>%
* ungroup()
```
]
 
.panel2-q2-auto[

```
# A tibble: 55 x 2
   state                  cases
   <chr>                  <dbl>
 1 Alabama               550451
 2 Alaska                 70581
 3 Arizona               894106
 4 Arkansas              348699
 5 California           3818219
 6 Colorado              560407
 7 Connecticut           349301
 8 Delaware              109712
 9 District of Columbia   49347
10 Florida              2321929
# … with 45 more rows
```
…
.pull-left[

```r
gapminder %>% 
  filter(year == 2007) %>% 
  group_by(continent) %>% 
  mutate(mp = mean(pop)) %>%   
  mutate(mle = mean(lifeExp)) %>% 
* ungroup()  %>%
  select(country, year, mp, mle) 
```

```
# A tibble: 142 x 4
   country      year         mp   mle
   <fct>       <int>      <dbl> <dbl>
 1 Afghanistan  2007 115513752.  70.7
 2 Albania      2007  19536618.  77.6
 3 Algeria      2007  17875763.  54.8
 4 Angola       2007  17875763.  54.8
 5 Argentina    2007  35954847.  73.6
 6 Australia    2007  12274974.  80.7
 7 Austria      2007  19536618.  77.6
 8 Bahrain      2007 115513752.  70.7
 9 Bangladesh   2007 115513752.  70.7
10 Belgium      2007  19536618.  77.6
# … with 132 more rows
```
…
.pull-right[

```r
gapminder %>% 
  filter(year == 2007) %>% 
  group_by(continent) %>%  
  mutate(mp = mean(pop)) %>%  
* ungroup() %>%
  mutate(mle = mean(lifeExp))  %>% 
  select(country, year, mp, mle)
```

```
# A tibble: 142 x 4
   country      year         mp   mle
   <fct>       <int>      <dbl> <dbl>
 1 Afghanistan  2007 115513752.  67.0
 2 Albania      2007  19536618.  67.0
 3 Algeria      2007  17875763.  67.0
 4 Angola       2007  17875763.  67.0
 5 Argentina    2007  35954847.  67.0
 6 Australia    2007  12274974.  67.0
 7 Austria      2007  19536618.  67.0
 8 Bahrain      2007 115513752.  67.0
 9 Bangladesh   2007 115513752.  67.0
10 Belgium      2007  19536618.  67.0
# … with 132 more rows
```
…
---
count: false
 
# Question 3 (1): County death ratio
.panel1-q31-auto[

```r
*covid
```
]
 
.panel2-q31-auto[

```
# A tibble: 97,395 x 6
   date       county   state   fips  cases deaths
   <date>     <chr>    <chr>   <chr> <dbl>  <dbl>
 1 2021-05-31 Autauga  Alabama 01001  7142    110
 2 2021-05-31 Baldwin  Alabama 01003 21620    311
 3 2021-05-31 Barbour  Alabama 01005  2334     59
 4 2021-05-31 Bibb     Alabama 01007  2664     64
 5 2021-05-31 Blount   Alabama 01009  6864    139
 6 2021-05-31 Bullock  Alabama 01011  1233     42
 7 2021-05-31 Butler   Alabama 01013  2219     71
 8 2021-05-31 Calhoun  Alabama 01015 14622    324
 9 2021-05-31 Chambers Alabama 01017  3665    123
10 2021-05-31 Cherokee Alabama 01019  1862     45
# … with 97,385 more rows
```
…
# Question 3 (1): County death ratio
.panel1-q31-auto[

```r
covid %>%
* filter(date == max(date), county != "Unknown", cases != 0)
```
]
 
.panel2-q31-auto[

```
# A tibble: 3,221 x 6
   date       county   state   fips  cases deaths
   <date>     <chr>    <chr>   <chr> <dbl>  <dbl>
 1 2021-06-29 Autauga  Alabama 01001  7247    113
 2 2021-06-29 Baldwin  Alabama 01003 21985    314
 3 2021-06-29 Barbour  Alabama 01005  2345     60
 4 2021-06-29 Bibb     Alabama 01007  2687     64
 5 2021-06-29 Blount   Alabama 01009  6975    139
 6 2021-06-29 Bullock  Alabama 01011  1249     42
 7 2021-06-29 Butler   Alabama 01013  2255     71
 8 2021-06-29 Calhoun  Alabama 01015 14766    330
 9 2021-06-29 Chambers Alabama 01017  3734    124
10 2021-06-29 Cherokee Alabama 01019  1874     45
# … with 3,211 more rows
```
…
# Question 3 (1): County death ratio
.panel1-q31-auto[

```r
covid %>%
  filter(date == max(date), county != "Unknown", cases != 0) %>%
* mutate(ratio = 100*(deaths/cases))
```
]
 
.panel2-q31-auto[

```
# A tibble: 3,221 x 7
   date       county   state   fips  cases deaths ratio
   <date>     <chr>    <chr>   <chr> <dbl>  <dbl> <dbl>
 1 2021-06-29 Autauga  Alabama 01001  7247    113  1.56
 2 2021-06-29 Baldwin  Alabama 01003 21985    314  1.43
 3 2021-06-29 Barbour  Alabama 01005  2345     60  2.56
 4 2021-06-29 Bibb     Alabama 01007  2687     64  2.38
 5 2021-06-29 Blount   Alabama 01009  6975    139  1.99
 6 2021-06-29 Bullock  Alabama 01011  1249     42  3.36
 7 2021-06-29 Butler   Alabama 01013  2255     71  3.15
 8 2021-06-29 Calhoun  Alabama 01015 14766    330  2.23
 9 2021-06-29 Chambers Alabama 01017  3734    124  3.32
10 2021-06-29 Cherokee Alabama 01019  1874     45  2.40
# … with 3,211 more rows
```
…
---
count: false
 
# Question 3 (2): County death ratio
.panel1-q32-auto[

```r
*covid
```
]
 
.panel2-q32-auto[

```
# A tibble: 97,395 x 6
   date       county   state   fips  cases deaths
   <date>     <chr>    <chr>   <chr> <dbl>  <dbl>
 1 2021-05-31 Autauga  Alabama 01001  7142    110
 2 2021-05-31 Baldwin  Alabama 01003 21620    311
 3 2021-05-31 Barbour  Alabama 01005  2334     59
 4 2021-05-31 Bibb     Alabama 01007  2664     64
 5 2021-05-31 Blount   Alabama 01009  6864    139
 6 2021-05-31 Bullock  Alabama 01011  1233     42
 7 2021-05-31 Butler   Alabama 01013  2219     71
 8 2021-05-31 Calhoun  Alabama 01015 14622    324
 9 2021-05-31 Chambers Alabama 01017  3665    123
10 2021-05-31 Cherokee Alabama 01019  1862     45
# … with 97,385 more rows
```
…
# Question 3 (2): County death ratio
.panel1-q32-auto[

```r
covid %>%
* filter(date == max(date), cases > 0, county != "Unknown")
```
]
 
.panel2-q32-auto[

```
# A tibble: 3,221 x 6
   date       county   state   fips  cases deaths
   <date>     <chr>    <chr>   <chr> <dbl>  <dbl>
 1 2021-06-29 Autauga  Alabama 01001  7247    113
 2 2021-06-29 Baldwin  Alabama 01003 21985    314
 3 2021-06-29 Barbour  Alabama 01005  2345     60
 4 2021-06-29 Bibb     Alabama 01007  2687     64
 5 2021-06-29 Blount   Alabama 01009  6975    139
 6 2021-06-29 Bullock  Alabama 01011  1249     42
 7 2021-06-29 Butler   Alabama 01013  2255     71
 8 2021-06-29 Calhoun  Alabama 01015 14766    330
 9 2021-06-29 Chambers Alabama 01017  3734    124
10 2021-06-29 Cherokee Alabama 01019  1874     45
# … with 3,211 more rows
```
…
count: false
 
# Question 4: State death ratio
.panel1-q4-auto[

```r
*filter(covid, date == max(date))
```
]
 
.panel2-q4-auto[

```
# A tibble: 3,246 x 6
   date       county   state   fips  cases deaths
   <date>     <chr>    <chr>   <chr> <dbl>  <dbl>
 1 2021-06-29 Autauga  Alabama 01001  7247    113
 2 2021-06-29 Baldwin  Alabama 01003 21985    314
 3 2021-06-29 Barbour  Alabama 01005  2345     60
 4 2021-06-29 Bibb     Alabama 01007  2687     64
 5 2021-06-29 Blount   Alabama 01009  6975    139
 6 2021-06-29 Bullock  Alabama 01011  1249     42
 7 2021-06-29 Butler   Alabama 01013  2255     71
 8 2021-06-29 Calhoun  Alabama 01015 14766    330
 9 2021-06-29 Chambers Alabama 01017  3734    124
10 2021-06-29 Cherokee Alabama 01019  1874     45
# … with 3,236 more rows
```
…
# Question 4: State death ratio
.panel1-q4-auto[

```r
filter(covid, date == max(date)) %>%
* group_by(state)
```
]
 
.panel2-q4-auto[

```
# A tibble: 3,246 x 6
# Groups:   state [55]
   date       county   state   fips  cases deaths
   <date>     <chr>    <chr>   <chr> <dbl>  <dbl>
 1 2021-06-29 Autauga  Alabama 01001  7247    113
 2 2021-06-29 Baldwin  Alabama 01003 21985    314
 3 2021-06-29 Barbour  Alabama 01005  2345     60
 4 2021-06-29 Bibb     Alabama 01007  2687     64
 5 2021-06-29 Blount   Alabama 01009  6975    139
 6 2021-06-29 Bullock  Alabama 01011  1249     42
 7 2021-06-29 Butler   Alabama 01013  2255     71
 8 2021-06-29 Calhoun  Alabama 01015 14766    330
 9 2021-06-29 Chambers Alabama 01017  3734    124
10 2021-06-29 Cherokee Alabama 01019  1874     45
# … with 3,236 more rows
```
…
```r
filter(covid, date == max(date)) %>%
  group_by(state) %>%
* summarize(totCases = sum(cases),
*           totDeaths = sum(deaths),
*           ratio = 100 * (totDeaths/totCases))
```
]
 
.panel2-q4-auto[

```
# A tibble: 55 x 4
   state                totCases totDeaths ratio
   <chr>                   <dbl>     <dbl> <dbl>
 1 Alabama                550451     11338 2.06 
 2 Alaska                  70581       357 0.506
 3 Arizona                894106     17930 2.01 
 4 Arkansas               348699      5905 1.69 
 5 California            3818219     63606 1.67 
 6 Colorado               560407      6940 1.24 
 7 Connecticut            349301      8276 2.37 
 8 Delaware               109712      1694 1.54 
 9 District of Columbia    49347      1141 2.31 
10 Florida               2321929     37772 1.63 
# … with 45 more rows
```
…
```r
filter(covid, date == max(date)) %>%
  group_by(state) %>%
  summarize(totCases = sum(cases),
            totDeaths = sum(deaths),
            ratio = 100 * (totDeaths/totCases)) %>%
* ungroup()
```
]
 
.panel2-q4-auto[

```
# A tibble: 55 x 4
   state                totCases totDeaths ratio
   <chr>                   <dbl>     <dbl> <dbl>
 1 Alabama                550451     11338 2.06 
 2 Alaska                  70581       357 0.506
 3 Arizona                894106     17930 2.01 
 4 Arkansas               348699      5905 1.69 
 5 California            3818219     63606 1.67 
 6 Colorado               560407      6940 1.24 
 7 Connecticut            349301      8276 2.37 
 8 Delaware               109712      1694 1.54 
 9 District of Columbia    49347      1141 2.31 
10 Florida               2321929     37772 1.63 
# … with 45 more rows
```
…
---

# Example Data for today ...

```r
(gm2007 = filter(gapminder, year == 2007))
```

```
# A tibble: 142 x 6
   country     continent  year lifeExp       pop gdpPercap
   <fct>       <fct>     <int>   <dbl>     <int>     <dbl>
 1 Afghanistan Asia       2007    43.8  31889923      975.
 2 Albania     Europe     2007    76.4   3600523     5937.
 3 Algeria     Africa     2007    72.3  33333216     6223.
 4 Angola      Africa     2007    42.7  12420476     4797.
 5 Argentina   Americas   2007    75.3  40301927    12779.
 6 Australia   Oceania    2007    81.2  20434176    34435.
 7 Austria     Europe     2007    79.8   8199783    36126.
 8 Bahrain     Asia       2007    75.6    708573    29796.
 9 Bangladesh  Asia       2007    64.1 150448339     1391.
10 Belgium     Europe     2007    79.4  10392226    33693.
# … with 132 more rows
```
…
count: false
 
#Facet Grids...
.panel1-grid-auto[

```r
*gapminder
```
]
 
.panel2-grid-auto[

```
# A tibble: 1,704 x 6
   country     continent  year lifeExp      pop gdpPercap
   <fct>       <fct>     <int>   <dbl>    <int>     <dbl>
 1 Afghanistan Asia       1952    28.8  8425333      779.
 2 Afghanistan Asia       1957    30.3  9240934      821.
 3 Afghanistan Asia       1962    32.0 10267083      853.
 4 Afghanistan Asia       1967    34.0 11537966      836.
 5 Afghanistan Asia       1972    36.1 13079460      740.
 6 Afghanistan Asia       1977    38.4 14880372      786.
 7 Afghanistan Asia       1982    39.9 12881816      978.
 8 Afghanistan Asia       1987    40.8 13867957      852.
 9 Afghanistan Asia       1992    41.7 16317921      649.
10 Afghanistan Asia       1997    41.8 22227415      635.
# … with 1,694 more rows
```
…
#Facet Grids...
.panel1-grid-auto[

```r
gapminder %>%
* filter(year %in% c(1952, 1977, 2007))
```
]
 
.panel2-grid-auto[

```
# A tibble: 426 x 6
   country     continent  year lifeExp      pop gdpPercap
   <fct>       <fct>     <int>   <dbl>    <int>     <dbl>
 1 Afghanistan Asia       1952    28.8  8425333      779.
 2 Afghanistan Asia       1977    38.4 14880372      786.
 3 Afghanistan Asia       2007    43.8 31889923      975.
 4 Albania     Europe     1952    55.2  1282697     1601.
 5 Albania     Europe     1977    68.9  2509048     3533.
 6 Albania     Europe     2007    76.4  3600523     5937.
 7 Algeria     Africa     1952    43.1  9279525     2449.
 8 Algeria     Africa     1977    58.0 17152804     4910.
 9 Algeria     Africa     2007    72.3 33333216     6223.
10 Angola      Africa     1952    30.0  4232095     3521.
# … with 416 more rows
```
…
count: false
 
#Built in Themes...
.panel1-theme-auto[

```r
*gm2007
```
]
 
.panel2-theme-auto[

```
# A tibble: 142 x 6
   country     continent  year lifeExp       pop gdpPercap
   <fct>       <fct>     <int>   <dbl>     <int>     <dbl>
 1 Afghanistan Asia       2007    43.8  31889923      975.
 2 Albania     Europe     2007    76.4   3600523     5937.
 3 Algeria     Africa     2007    72.3  33333216     6223.
 4 Angola      Africa     2007    42.7  12420476     4797.
 5 Argentina   Americas   2007    75.3  40301927    12779.
 6 Australia   Oceania    2007    81.2  20434176    34435.
 7 Austria     Europe     2007    79.8   8199783    36126.
 8 Bahrain     Asia       2007    75.6    708573    29796.
 9 Bangladesh  Asia       2007    64.1 150448339     1391.
10 Belgium     Europe     2007    79.4  10392226    33693.
# … with 132 more rows
```
…
#ggtheme package...
.panel1-ggtheme-auto[

```r
library(ggthemes)

*gm2007
```
]
 
.panel2-ggtheme-auto[

```
# A tibble: 142 x 6
   country     continent  year lifeExp       pop gdpPercap
   <fct>       <fct>     <int>   <dbl>     <int>     <dbl>
 1 Afghanistan Asia       2007    43.8  31889923      975.
 2 Albania     Europe     2007    76.4   3600523     5937.
 3 Algeria     Africa     2007    72.3  33333216     6223.
 4 Angola      Africa     2007    42.7  12420476     4797.
 5 Argentina   Americas   2007    75.3  40301927    12779.
 6 Australia   Oceania    2007    81.2  20434176    34435.
 7 Austria     Europe     2007    79.8   8199783    36126.
 8 Bahrain     Asia       2007    75.6    708573    29796.
 9 Bangladesh  Asia       2007    64.1 150448339     1391.
10 Belgium     Europe     2007    79.4  10392226    33693.
# … with 132 more rows
```
…
