Geography 13
…
--

- the `data.frame` is ALWAYS the fist argument

--

- Lets find all rows in `gapminder` that in which the life expectancy is less then 35

```r
filter(gapminder, lifeExp < 40)
```

```
# A tibble: 124 x 6
   country     continent  year lifeExp      pop gdpPercap
   <fct>       <fct>     <int>   <dbl>    <int>     <dbl>
 1 Afghanistan Asia       1952    28.8  8425333      779.
 2 Afghanistan Asia       1957    30.3  9240934      821.
 3 Afghanistan Asia       1962    32.0 10267083      853.
 4 Afghanistan Asia       1967    34.0 11537966      836.
 5 Afghanistan Asia       1972    36.1 13079460      740.
 6 Afghanistan Asia       1977    38.4 14880372      786.
 7 Afghanistan Asia       1982    39.9 12881816      978.
 8 Angola      Africa     1952    30.0  4232095     3521.
 9 Angola      Africa     1957    32.0  4561361     3828.
10 Angola      Africa     1962    34    4826015     4269.
# … with 114 more rows
```
…
---

You should never subset your data like this:

```r
gapminder[19:70, ]
```

```
# A tibble: 52 x 6
   country continent  year lifeExp      pop gdpPercap
   <fct>   <fct>     <int>   <dbl>    <int>     <dbl>
 1 Albania Europe     1982    70.4  2780097     3631.
 2 Albania Europe     1987    72    3075321     3739.
 3 Albania Europe     1992    71.6  3326498     2497.
 4 Albania Europe     1997    73.0  3428038     3193.
 5 Albania Europe     2002    75.7  3508512     4604.
 6 Albania Europe     2007    76.4  3600523     5937.
 7 Algeria Africa     1952    43.1  9279525     2449.
 8 Algeria Africa     1957    45.7 10270856     3014.
 9 Algeria Africa     1962    48.3 11000948     2551.
10 Algeria Africa     1967    51.4 12760499     3247.
# … with 42 more rows
```
…
---

## Use `select()` to subset by variables or columns.

- Use `select()` to subset the variables or columns you want.

- the `data.frame` is ALWAYS the fist argument

```r
select(gapminder, country, lifeExp)
```

```
# A tibble: 1,704 x 2
   country     lifeExp
   <fct>         <dbl>
 1 Afghanistan    28.8
 2 Afghanistan    30.3
 3 Afghanistan    32.0
 4 Afghanistan    34.0
 5 Afghanistan    36.1
 6 Afghanistan    38.4
 7 Afghanistan    39.9
 8 Afghanistan    40.8
 9 Afghanistan    41.7
10 Afghanistan    41.8
# … with 1,694 more rows
```

---

## Use `select()` to subset by variables or columns.

`select()` can also be used to rename existing columns

```r
select(gapminder, country, life_exp = lifeExp)
```

```
# A tibble: 1,704 x 2
   country     life_exp
   <fct>          <dbl>
 1 Afghanistan     28.8
 2 Afghanistan     30.3
 3 Afghanistan     32.0
 4 Afghanistan     34.0
 5 Afghanistan     36.1
 6 Afghanistan     38.4
 7 Afghanistan     39.9
 8 Afghanistan     40.8
 9 Afghanistan     41.7
10 Afghanistan     41.8
# … with 1,694 more rows
```

---

## Use `select()` to subset by variables or columns.

select() can be used to remove columns. The ! negates a selection

```r
select(gapminder, !country)
```

```
# A tibble: 1,704 x 5
   continent  year lifeExp      pop gdpPercap
   <fct>     <int>   <dbl>    <int>     <dbl>
 1 Asia       1952    28.8  8425333      779.
 2 Asia       1957    30.3  9240934      821.
 3 Asia       1962    32.0 10267083      853.
 4 Asia       1967    34.0 11537966      836.
 5 Asia       1972    36.1 13079460      740.
 6 Asia       1977    38.4 14880372      786.
 7 Asia       1982    39.9 12881816      978.
 8 Asia       1987    40.8 13867957      852.
 9 Asia       1992    41.7 16317921      649.
10 Asia       1997    41.8 22227415      635.
# … with 1,694 more rows
```
…
The RStudio keyboard shortcut: Ctrl+Shift+M (Windows), Cmd+Shift+M (Mac).

The pipe passes the object on the left hand side of the pipe into the first argument of the right hand function:

.pull-left[

### So this: 

```r
select(gapminder, country, lifeExp)
```

```
# A tibble: 1,704 x 2
   country     lifeExp
   <fct>         <dbl>
 1 Afghanistan    28.8
 2 Afghanistan    30.3
 3 Afghanistan    32.0
 4 Afghanistan    34.0
 5 Afghanistan    36.1
 6 Afghanistan    38.4
 7 Afghanistan    39.9
 8 Afghanistan    40.8
 9 Afghanistan    41.7
10 Afghanistan    41.8
# … with 1,694 more rows
```
]

.pull-right[

### ...is the same as this:

```r
gapminder %>% 
  select(country, lifeExp)
```

```
# A tibble: 1,704 x 2
   country     lifeExp
   <fct>         <dbl>
 1 Afghanistan    28.8
 2 Afghanistan    30.3
 3 Afghanistan    32.0
 4 Afghanistan    34.0
 5 Afghanistan    36.1
 6 Afghanistan    38.4
 7 Afghanistan    39.9
 8 Afghanistan    40.8
 9 Afghanistan    41.7
10 Afghanistan    41.8
# … with 1,694 more rows
```
…
count: false
 
# %>%  across verbs
.panel1-plot-auto[

```r
*gapminder
```
]
 
.panel2-plot-auto[

```
# A tibble: 1,704 x 6
   country     continent  year lifeExp      pop gdpPercap
   <fct>       <fct>     <int>   <dbl>    <int>     <dbl>
 1 Afghanistan Asia       1952    28.8  8425333      779.
 2 Afghanistan Asia       1957    30.3  9240934      821.
 3 Afghanistan Asia       1962    32.0 10267083      853.
 4 Afghanistan Asia       1967    34.0 11537966      836.
 5 Afghanistan Asia       1972    36.1 13079460      740.
 6 Afghanistan Asia       1977    38.4 14880372      786.
 7 Afghanistan Asia       1982    39.9 12881816      978.
 8 Afghanistan Asia       1987    40.8 13867957      852.
 9 Afghanistan Asia       1992    41.7 16317921      649.
10 Afghanistan Asia       1997    41.8 22227415      635.
# … with 1,694 more rows
```
…
# %>%  across verbs
.panel1-plot-auto[

```r
gapminder %>%
* select(pop, gdpPercap, year, country)
```
]
 
.panel2-plot-auto[

```
# A tibble: 1,704 x 4
        pop gdpPercap  year country    
      <int>     <dbl> <int> <fct>      
 1  8425333      779.  1952 Afghanistan
 2  9240934      821.  1957 Afghanistan
 3 10267083      853.  1962 Afghanistan
 4 11537966      836.  1967 Afghanistan
 5 13079460      740.  1972 Afghanistan
 6 14880372      786.  1977 Afghanistan
 7 12881816      978.  1982 Afghanistan
 8 13867957      852.  1987 Afghanistan
 9 16317921      649.  1992 Afghanistan
10 22227415      635.  1997 Afghanistan
# … with 1,694 more rows
```
…
# %>%  across verbs
.panel1-plot-auto[

```r
gapminder %>%
  select(pop, gdpPercap, year, country) %>%
* filter(pop > 100000000 & gdpPercap > 5000)
```
]
 
.panel2-plot-auto[

```
# A tibble: 30 x 4
         pop gdpPercap  year country
       <int>     <dbl> <int> <fct>  
 1 114313951     6660.  1977 Brazil 
 2 128962939     7031.  1982 Brazil 
 3 142938076     7807.  1987 Brazil 
 4 155975974     6950.  1992 Brazil 
 5 168546719     7958.  1997 Brazil 
 6 179914212     8131.  2002 Brazil 
 7 190010647     9066.  2007 Brazil 
 8 100825279     9848.  1967 Japan  
 9 107188273    14779.  1972 Japan  
10 113872473    16610.  1977 Japan  
# … with 20 more rows
```
…
count: false
 
#Mutate
.panel1-mutate-auto[

```r
*gapminder
```
]
 
.panel2-mutate-auto[

```
# A tibble: 1,704 x 6
   country     continent  year lifeExp      pop gdpPercap
   <fct>       <fct>     <int>   <dbl>    <int>     <dbl>
 1 Afghanistan Asia       1952    28.8  8425333      779.
 2 Afghanistan Asia       1957    30.3  9240934      821.
 3 Afghanistan Asia       1962    32.0 10267083      853.
 4 Afghanistan Asia       1967    34.0 11537966      836.
 5 Afghanistan Asia       1972    36.1 13079460      740.
 6 Afghanistan Asia       1977    38.4 14880372      786.
 7 Afghanistan Asia       1982    39.9 12881816      978.
 8 Afghanistan Asia       1987    40.8 13867957      852.
 9 Afghanistan Asia       1992    41.7 16317921      649.
10 Afghanistan Asia       1997    41.8 22227415      635.
# … with 1,694 more rows
```
…
#Mutate
.panel1-mutate-auto[

```r
gapminder %>%
* mutate(gdp = pop * gdpPercap)
```
]
 
.panel2-mutate-auto[

```
# A tibble: 1,704 x 7
   country    continent  year lifeExp     pop gdpPercap       gdp
   <fct>      <fct>     <int>   <dbl>   <int>     <dbl>     <dbl>
 1 Afghanist… Asia       1952    28.8  8.43e6      779.   6.57e 9
 2 Afghanist… Asia       1957    30.3  9.24e6      821.   7.59e 9
 3 Afghanist… Asia       1962    32.0  1.03e7      853.   8.76e 9
 4 Afghanist… Asia       1967    34.0  1.15e7      836.   9.65e 9
 5 Afghanist… Asia       1972    36.1  1.31e7      740.   9.68e 9
 6 Afghanist… Asia       1977    38.4  1.49e7      786.   1.17e10
 7 Afghanist… Asia       1982    39.9  1.29e7      978.   1.26e10
 8 Afghanist… Asia       1987    40.8  1.39e7      852.   1.18e10
 9 Afghanist… Asia       1992    41.7  1.63e7      649.   1.06e10
10 Afghanist… Asia       1997    41.8  2.22e7      635.   1.41e10
# … with 1,694 more rows
```
…
#Mutate
.panel1-mutate-auto[

```r
gapminder %>%
  mutate(gdp = pop * gdpPercap) %>%
* mutate(gdpPercap = NULL)
```
]
 
.panel2-mutate-auto[

```
# A tibble: 1,704 x 6
   country     continent  year lifeExp      pop          gdp
   <fct>       <fct>     <int>   <dbl>    <int>        <dbl>
 1 Afghanistan Asia       1952    28.8  8425333  6567086330.
 2 Afghanistan Asia       1957    30.3  9240934  7585448670.
 3 Afghanistan Asia       1962    32.0 10267083  8758855797.
 4 Afghanistan Asia       1967    34.0 11537966  9648014150.
 5 Afghanistan Asia       1972    36.1 13079460  9678553274.
 6 Afghanistan Asia       1977    38.4 14880372 11697659231.
 7 Afghanistan Asia       1982    39.9 12881816 12598563401.
 8 Afghanistan Asia       1987    40.8 13867957 11820990309.
 9 Afghanistan Asia       1992    41.7 16317921 10595901589.
10 Afghanistan Asia       1997    41.8 22227415 14121995875.
# … with 1,694 more rows
```
…
```r
gapminder %>%
  mutate(gdp = pop * gdpPercap) %>%
  mutate(gdpPercap = NULL)

*gapminder
```
]
 
.panel2-mutate-auto[

```
# A tibble: 1,704 x 6
   country     continent  year lifeExp      pop          gdp
   <fct>       <fct>     <int>   <dbl>    <int>        <dbl>
 1 Afghanistan Asia       1952    28.8  8425333  6567086330.
 2 Afghanistan Asia       1957    30.3  9240934  7585448670.
 3 Afghanistan Asia       1962    32.0 10267083  8758855797.
 4 Afghanistan Asia       1967    34.0 11537966  9648014150.
 5 Afghanistan Asia       1972    36.1 13079460  9678553274.
 6 Afghanistan Asia       1977    38.4 14880372 11697659231.
 7 Afghanistan Asia       1982    39.9 12881816 12598563401.
 8 Afghanistan Asia       1987    40.8 13867957 11820990309.
 9 Afghanistan Asia       1992    41.7 16317921 10595901589.
10 Afghanistan Asia       1997    41.8 22227415 14121995875.
# … with 1,694 more rows
```

```
# A tibble: 1,704 x 6
   country     continent  year lifeExp      pop gdpPercap
   <fct>       <fct>     <int>   <dbl>    <int>     <dbl>
 1 Afghanistan Asia       1952    28.8  8425333      779.
 2 Afghanistan Asia       1957    30.3  9240934      821.
 3 Afghanistan Asia       1962    32.0 10267083      853.
 4 Afghanistan Asia       1967    34.0 11537966      836.
 5 Afghanistan Asia       1972    36.1 13079460      740.
 6 Afghanistan Asia       1977    38.4 14880372      786.
 7 Afghanistan Asia       1982    39.9 12881816      978.
 8 Afghanistan Asia       1987    40.8 13867957      852.
 9 Afghanistan Asia       1992    41.7 16317921      649.
10 Afghanistan Asia       1997    41.8 22227415      635.
# … with 1,694 more rows
```
…
```r
gapminder %>%
  mutate(gdp = pop * gdpPercap) %>%
  mutate(gdpPercap = NULL)

gapminder %>%
* mutate(gdp = pop * gdpPercap,
*        gdpPercap = NULL)
```
]
 
.panel2-mutate-auto[

```
# A tibble: 1,704 x 6
   country     continent  year lifeExp      pop          gdp
   <fct>       <fct>     <int>   <dbl>    <int>        <dbl>
 1 Afghanistan Asia       1952    28.8  8425333  6567086330.
 2 Afghanistan Asia       1957    30.3  9240934  7585448670.
 3 Afghanistan Asia       1962    32.0 10267083  8758855797.
 4 Afghanistan Asia       1967    34.0 11537966  9648014150.
 5 Afghanistan Asia       1972    36.1 13079460  9678553274.
 6 Afghanistan Asia       1977    38.4 14880372 11697659231.
 7 Afghanistan Asia       1982    39.9 12881816 12598563401.
 8 Afghanistan Asia       1987    40.8 13867957 11820990309.
 9 Afghanistan Asia       1992    41.7 16317921 10595901589.
10 Afghanistan Asia       1997    41.8 22227415 14121995875.
# … with 1,694 more rows
```

```
# A tibble: 1,704 x 6
   country     continent  year lifeExp      pop          gdp
   <fct>       <fct>     <int>   <dbl>    <int>        <dbl>
 1 Afghanistan Asia       1952    28.8  8425333  6567086330.
 2 Afghanistan Asia       1957    30.3  9240934  7585448670.
 3 Afghanistan Asia       1962    32.0 10267083  8758855797.
 4 Afghanistan Asia       1967    34.0 11537966  9648014150.
 5 Afghanistan Asia       1972    36.1 13079460  9678553274.
 6 Afghanistan Asia       1977    38.4 14880372 11697659231.
 7 Afghanistan Asia       1982    39.9 12881816 12598563401.
 8 Afghanistan Asia       1987    40.8 13867957 11820990309.
 9 Afghanistan Asia       1992    41.7 16317921 10595901589.
10 Afghanistan Asia       1997    41.8 22227415 14121995875.
# … with 1,694 more rows
```
…
count: false
 
#Decreasing or Increasing?
.panel1-arrange-auto[

```r
*gapminder
```
]
 
.panel2-arrange-auto[

```
# A tibble: 1,704 x 6
   country     continent  year lifeExp      pop gdpPercap
   <fct>       <fct>     <int>   <dbl>    <int>     <dbl>
 1 Afghanistan Asia       1952    28.8  8425333      779.
 2 Afghanistan Asia       1957    30.3  9240934      821.
 3 Afghanistan Asia       1962    32.0 10267083      853.
 4 Afghanistan Asia       1967    34.0 11537966      836.
 5 Afghanistan Asia       1972    36.1 13079460      740.
 6 Afghanistan Asia       1977    38.4 14880372      786.
 7 Afghanistan Asia       1982    39.9 12881816      978.
 8 Afghanistan Asia       1987    40.8 13867957      852.
 9 Afghanistan Asia       1992    41.7 16317921      649.
10 Afghanistan Asia       1997    41.8 22227415      635.
# … with 1,694 more rows
```
…
#Decreasing or Increasing?
.panel1-arrange-auto[

```r
gapminder %>%
* filter(year == 2007)
```
]
 
.panel2-arrange-auto[

```
# A tibble: 142 x 6
   country     continent  year lifeExp       pop gdpPercap
   <fct>       <fct>     <int>   <dbl>     <int>     <dbl>
 1 Afghanistan Asia       2007    43.8  31889923      975.
 2 Albania     Europe     2007    76.4   3600523     5937.
 3 Algeria     Africa     2007    72.3  33333216     6223.
 4 Angola      Africa     2007    42.7  12420476     4797.
 5 Argentina   Americas   2007    75.3  40301927    12779.
 6 Australia   Oceania    2007    81.2  20434176    34435.
 7 Austria     Europe     2007    79.8   8199783    36126.
 8 Bahrain     Asia       2007    75.6    708573    29796.
 9 Bangladesh  Asia       2007    64.1 150448339     1391.
10 Belgium     Europe     2007    79.4  10392226    33693.
# … with 132 more rows
```
…
#Decreasing or Increasing?
.panel1-arrange-auto[

```r
gapminder %>%
  filter(year == 2007) %>%
* arrange(lifeExp)
```
]
 
.panel2-arrange-auto[

```
# A tibble: 142 x 6
   country              continent  year lifeExp     pop gdpPercap
   <fct>                <fct>     <int>   <dbl>   <int>     <dbl>
 1 Swaziland            Africa     2007    39.6  1.13e6     4513.
 2 Mozambique           Africa     2007    42.1  2.00e7      824.
 3 Zambia               Africa     2007    42.4  1.17e7     1271.
 4 Sierra Leone         Africa     2007    42.6  6.14e6      863.
 5 Lesotho              Africa     2007    42.6  2.01e6     1569.
 6 Angola               Africa     2007    42.7  1.24e7     4797.
 7 Zimbabwe             Africa     2007    43.5  1.23e7      470.
 8 Afghanistan          Asia       2007    43.8  3.19e7      975.
 9 Central African Rep… Africa     2007    44.7  4.37e6      706.
10 Liberia              Africa     2007    45.7  3.19e6      415.
# … with 132 more rows
```
…
#Decreasing or Increasing?
.panel1-arrange-auto[

```r
gapminder %>%
  filter(year == 2007) %>%
  arrange(lifeExp) %>%
* arrange(-lifeExp)
```
]
 
.panel2-arrange-auto[

```
# A tibble: 142 x 6
   country          continent  year lifeExp       pop gdpPercap
   <fct>            <fct>     <int>   <dbl>     <int>     <dbl>
 1 Japan            Asia       2007    82.6 127467972    31656.
 2 Hong Kong, China Asia       2007    82.2   6980412    39725.
 3 Iceland          Europe     2007    81.8    301931    36181.
 4 Switzerland      Europe     2007    81.7   7554661    37506.
 5 Australia        Oceania    2007    81.2  20434176    34435.
 6 Spain            Europe     2007    80.9  40448191    28821.
 7 Sweden           Europe     2007    80.9   9031088    33860.
 8 Israel           Asia       2007    80.7   6426679    25523.
 9 France           Europe     2007    80.7  61083916    30470.
10 Canada           Americas   2007    80.7  33390141    36319.
# … with 132 more rows
```
…
count: false
 
#Multi sort (order matters)
.panel1-arrange2-auto[

```r
*gapminder
```
]
 
.panel2-arrange2-auto[

```
# A tibble: 1,704 x 6
   country     continent  year lifeExp      pop gdpPercap
   <fct>       <fct>     <int>   <dbl>    <int>     <dbl>
 1 Afghanistan Asia       1952    28.8  8425333      779.
 2 Afghanistan Asia       1957    30.3  9240934      821.
 3 Afghanistan Asia       1962    32.0 10267083      853.
 4 Afghanistan Asia       1967    34.0 11537966      836.
 5 Afghanistan Asia       1972    36.1 13079460      740.
 6 Afghanistan Asia       1977    38.4 14880372      786.
 7 Afghanistan Asia       1982    39.9 12881816      978.
 8 Afghanistan Asia       1987    40.8 13867957      852.
 9 Afghanistan Asia       1992    41.7 16317921      649.
10 Afghanistan Asia       1997    41.8 22227415      635.
# … with 1,694 more rows
```
…
#Multi sort (order matters)
.panel1-arrange2-auto[

```r
gapminder %>%
* select(country, year, pop)
```
]
 
.panel2-arrange2-auto[

```
# A tibble: 1,704 x 3
   country      year      pop
   <fct>       <int>    <int>
 1 Afghanistan  1952  8425333
 2 Afghanistan  1957  9240934
 3 Afghanistan  1962 10267083
 4 Afghanistan  1967 11537966
 5 Afghanistan  1972 13079460
 6 Afghanistan  1977 14880372
 7 Afghanistan  1982 12881816
 8 Afghanistan  1987 13867957
 9 Afghanistan  1992 16317921
10 Afghanistan  1997 22227415
# … with 1,694 more rows
```
…
#Multi sort (order matters)
.panel1-arrange2-auto[

```r
gapminder %>%
  select(country, year, pop) %>%
* arrange(year, country)
```
]
 
.panel2-arrange2-auto[

```
# A tibble: 1,704 x 3
   country      year      pop
   <fct>       <int>    <int>
 1 Afghanistan  1952  8425333
 2 Albania      1952  1282697
 3 Algeria      1952  9279525
 4 Angola       1952  4232095
 5 Argentina    1952 17876956
 6 Australia    1952  8691212
 7 Austria      1952  6927772
 8 Bahrain      1952   120447
 9 Bangladesh   1952 46886859
10 Belgium      1952  8730405
# … with 1,694 more rows
```
…
#Multi sort (order matters)
.panel1-arrange2-auto[

```r
gapminder %>%
  select(country, year, pop) %>%
  arrange(year, country) %>%
* arrange(country, year)
```
]
 
.panel2-arrange2-auto[

```
# A tibble: 1,704 x 3
   country      year      pop
   <fct>       <int>    <int>
 1 Afghanistan  1952  8425333
 2 Afghanistan  1957  9240934
 3 Afghanistan  1962 10267083
 4 Afghanistan  1967 11537966
 5 Afghanistan  1972 13079460
 6 Afghanistan  1977 14880372
 7 Afghanistan  1982 12881816
 8 Afghanistan  1987 13867957
 9 Afghanistan  1992 16317921
10 Afghanistan  1997 22227415
# … with 1,694 more rows
```
…
