Geography 176A
…
# Simple Features

<img src="lec-img/09-sf-model.png" width="75%" style="display: block; margin: auto;" />

---
# Todays Data:

```
Simple feature collection with 58 features and 4 fields
geometry type:  MULTIPOLYGON
dimension:      XY
bbox:           xmin: -124.4096 ymin: 32.53416 xmax: -114.1391 ymax: 42.00925
geographic CRS: NAD83
# A tibble: 58 x 5
   geoid name         aland stat_nm                                     geometry
   <chr> <chr>        <dbl> <chr>                             <MULTIPOLYGON [°]>
 1 06075 San Fra…   1.21e 8 Califor… (((-122.512 37.77113, -122.4654 37.80088, …
 2 06057 Nevada     2.48e 9 Califor… (((-121.2661 39.27272, -121.1275 39.38024,…
 3 06047 Merced     5.01e 9 Califor… (((-121.2268 37.13477, -120.9638 37.34614,…
 4 06003 Alpine     1.91e 9 Califor… (((-120.0725 38.50987, -120.0724 38.70277,…
 5 06013 Contra …   1.87e 9 Califor… (((-122.4253 37.95567, -122.3676 37.97817,…
 6 06107 Tulare     1.25e10 Califor… (((-119.5461 36.50896, -119.4663 36.57524,…
 7 06033 Lake       3.25e 9 Califor… (((-123.0778 39.17379, -122.9948 39.23592,…
 8 06051 Mono       7.90e 9 Califor… (((-119.6392 38.32688, -119.5424 38.48166,…
 9 06025 Imperial   1.08e10 Califor… (((-116.1056 32.72157, -116.0811 33.07483,…
10 06001 Alameda    1.91e 9 Califor… (((-122.3337 37.8098, -122.3039 37.83009, …
# … with 48 more rows
```
…
---

# From CSV

Spatial data can also be created from CSV and other flat files once it is in R:

```r
(cities = readr::read_csv("../labs/lab-01/data/uscities.csv") %>% 
  select(city, state_name, county_name, population, lat, lng) )
```

```
# A tibble: 28,889 x 6
   city         state_name county_name population   lat   lng
   <chr>        <chr>      <chr>            <dbl> <dbl> <dbl>
 1 South Creek  Washington Pierce            2500  47.0 -122.
 2 Roslyn       Washington Kittitas           947  47.3 -121.
 3 Sprague      Washington Lincoln            441  47.3 -118.
 4 Gig Harbor   Washington Pierce            9507  47.3 -123.
 5 Lake Cassidy Washington Snohomish         3591  48.1 -122.
 6 Tenino       Washington Thurston          1830  46.9 -123.
 7 Jamestown    Washington Clallam            289  48.1 -123.
 8 Three Lakes  Washington Snohomish         3390  47.9 -122.
 9 Curlew Lake  Washington Ferry              573  48.7 -119.
10 Chain Lake   Washington Snohomish         4280  47.9 -122.
# … with 28,879 more rows
```
…
To do this, you must specify the `X` and the `Y` coordinate columns as well as a CRS:

- A typical lat/long CRS is EPSG:4326

```r
(cities_sf = st_as_sf(cities, coords = c("lng", "lat"), crs = 4326))
```

```
Simple feature collection with 28889 features and 4 fields
geometry type:  POINT
dimension:      XY
bbox:           xmin: -176.6295 ymin: 17.9559 xmax: 173.123 ymax: 70.638
geographic CRS: WGS 84
# A tibble: 28,889 x 5
   city         state_name county_name population            geometry
 * <chr>        <chr>      <chr>            <dbl>         <POINT [°]>
 1 South Creek  Washington Pierce            2500 (-122.3921 46.9994)
 2 Roslyn       Washington Kittitas           947 (-121.0989 47.2507)
 3 Sprague      Washington Lincoln            441 (-117.9713 47.3048)
 4 Gig Harbor   Washington Pierce            9507 (-122.5968 47.3352)
 5 Lake Cassidy Washington Snohomish         3591  (-122.092 48.0639)
 6 Tenino       Washington Thurston          1830 (-122.8607 46.8537)
 7 Jamestown    Washington Clallam            289 (-123.0911 48.1229)
 8 Three Lakes  Washington Snohomish         3390  (-121.9924 47.942)
 9 Curlew Lake  Washington Ferry              573 (-118.6663 48.7311)
10 Chain Lake   Washington Snohomish         4280 (-121.9861 47.9038)
# … with 28,879 more rows
```
…
```r
*cities_sf
```
]
 
.right-panel-dplyr-auto[

```
Simple feature collection with 28889 features and 4 fields
geometry type:  POINT
dimension:      XY
bbox:           xmin: -176.6295 ymin: 17.9559 xmax: 173.123 ymax: 70.638
geographic CRS: WGS 84
# A tibble: 28,889 x 5
   city         state_name county_name population            geometry
 * <chr>        <chr>      <chr>            <dbl>         <POINT [°]>
 1 South Creek  Washington Pierce            2500 (-122.3921 46.9994)
 2 Roslyn       Washington Kittitas           947 (-121.0989 47.2507)
 3 Sprague      Washington Lincoln            441 (-117.9713 47.3048)
 4 Gig Harbor   Washington Pierce            9507 (-122.5968 47.3352)
 5 Lake Cassidy Washington Snohomish         3591  (-122.092 48.0639)
 6 Tenino       Washington Thurston          1830 (-122.8607 46.8537)
 7 Jamestown    Washington Clallam            289 (-123.0911 48.1229)
 8 Three Lakes  Washington Snohomish         3390  (-121.9924 47.942)
 9 Curlew Lake  Washington Ferry              573 (-118.6663 48.7311)
10 Chain Lake   Washington Snohomish         4280 (-121.9861 47.9038)
# … with 28,879 more rows
```
…
```r
cities_sf %>%  
* filter(state_name == "California")
```
]
 
.right-panel-dplyr-auto[

```
Simple feature collection with 1505 features and 4 fields
geometry type:  POINT
dimension:      XY
bbox:           xmin: -124.2619 ymin: 32.5689 xmax: -114.264 ymax: 41.9872
geographic CRS: WGS 84
# A tibble: 1,505 x 5
   city            state_name county_name population            geometry
 * <chr>           <chr>      <chr>            <dbl>         <POINT [°]>
 1 El Dorado Hills California El Dorado        45104   (-121.049 38.675)
 2 Lemon Cove      California Tulare             232  (-119.0312 36.379)
 3 Dillon Beach    California Marin              156  (-122.956 38.2436)
 4 Patterson Tract California Tulare            2320 (-119.2956 36.3795)
 5 Redcrest        California Humboldt            36 (-123.9474 40.3987)
 6 Madera          California Madera           83636  (-120.0803 36.964)
 7 Brooktrails     California Mendocino         3705 (-123.3963 39.4429)
 8 Geyserville     California Sonoma             929 (-122.9034 38.7173)
 9 Delhi           California Merced           11622 (-120.7759 37.4306)
10 Stanton         California Orange           38528 (-117.9935 33.8002)
# … with 1,495 more rows
```
…
.right-panel-dplyr-auto[

```
Simple feature collection with 1505 features and 4 fields
geometry type:  POINT
dimension:      XY
bbox:           xmin: -124.2619 ymin: 32.5689 xmax: -114.264 ymax: 41.9872
geographic CRS: WGS 84
# A tibble: 1,505 x 5
# Groups:   county_name [58]
   city            state_name county_name population            geometry
   <chr>           <chr>      <chr>            <dbl>         <POINT [°]>
 1 El Dorado Hills California El Dorado        45104   (-121.049 38.675)
 2 Lemon Cove      California Tulare             232  (-119.0312 36.379)
 3 Dillon Beach    California Marin              156  (-122.956 38.2436)
 4 Patterson Tract California Tulare            2320 (-119.2956 36.3795)
 5 Redcrest        California Humboldt            36 (-123.9474 40.3987)
 6 Madera          California Madera           83636  (-120.0803 36.964)
 7 Brooktrails     California Mendocino         3705 (-123.3963 39.4429)
 8 Geyserville     California Sonoma             929 (-122.9034 38.7173)
 9 Delhi           California Merced           11622 (-120.7759 37.4306)
10 Stanton         California Orange           38528 (-117.9935 33.8002)
# … with 1,495 more rows
```
…
.right-panel-dplyr-auto[

```
Simple feature collection with 58 features and 4 fields
geometry type:  POINT
dimension:      XY
bbox:           xmin: -124.1902 ymin: 32.7867 xmax: -115.5586 ymax: 41.7727
geographic CRS: WGS 84
# A tibble: 58 x 5
# Groups:   county_name [58]
   city             state_name county_name  population            geometry
   <chr>            <chr>      <chr>             <dbl>         <POINT [°]>
 1 Oakland          California Alameda          425195 (-122.2165 37.7903)
 2 Mesa Vista       California Alpine              291 (-119.8033 38.8103)
 3 Ione             California Amador             7730 (-120.9422 38.3613)
 4 Chico            California Butte            106268 (-121.8152 39.7575)
 5 Rancho Calaveras California Calaveras          6437  (-120.857 38.1248)
 6 Colusa           California Colusa             6781 (-122.0096 39.2049)
 7 Concord          California Contra Costa     654770 (-122.0016 37.9722)
 8 Crescent City    California Del Norte         15886 (-124.1902 41.7727)
 9 El Dorado Hills  California El Dorado         45104   (-121.049 38.675)
10 Fresno           California Fresno           698021 (-119.7941 36.7831)
# … with 48 more rows
```
…
