Geography 13
…
count: false
 
#Hurricane Ana
.panel1-ana-auto[

```r
*(ana = storms[storms$name == "Ana",])
```
]
 
.panel2-ana-auto[

```
# A tibble: 100 x 13
   name   year month   day  hour   lat  long status              category  wind pressure ts_diameter hu_diameter
   <chr> <dbl> <dbl> <int> <dbl> <dbl> <dbl> <chr>               <ord>    <int>    <int>       <dbl>       <dbl>
 1 Ana    1979     6    19    12  10   -45   tropical depression -1          25     1011          NA          NA
 2 Ana    1979     6    19    18  10.2 -46   tropical depression -1          25     1011          NA          NA
 3 Ana    1979     6    20     0  10.5 -47   tropical depression -1          25     1010          NA          NA
 4 Ana    1979     6    20     6  10.9 -48.1 tropical depression -1          25     1010          NA          NA
 5 Ana    1979     6    20    12  11.3 -49.2 tropical depression -1          25     1010          NA          NA
 6 Ana    1979     6    20    18  11.8 -50.2 tropical depression -1          25     1009          NA          NA
 7 Ana    1979     6    21     0  12.3 -51.1 tropical depression -1          30     1009          NA          NA
 8 Ana    1979     6    21     6  12.9 -51.9 tropical depression -1          30     1008          NA          NA
 9 Ana    1979     6    21    12  13.5 -52.7 tropical depression -1          30     1008          NA          NA
10 Ana    1979     6    21    18  13.9 -53.5 tropical depression -1          30     1007          NA          NA
# … with 90 more rows
```
…
#Hurricane Ana
.panel1-ana-auto[

```r
(ana = storms[storms$name == "Ana",])
*unique(ana$year)
```
]
 
.panel2-ana-auto[

```
# A tibble: 100 x 13
   name   year month   day  hour   lat  long status              category  wind pressure ts_diameter hu_diameter
   <chr> <dbl> <dbl> <int> <dbl> <dbl> <dbl> <chr>               <ord>    <int>    <int>       <dbl>       <dbl>
 1 Ana    1979     6    19    12  10   -45   tropical depression -1          25     1011          NA          NA
 2 Ana    1979     6    19    18  10.2 -46   tropical depression -1          25     1011          NA          NA
 3 Ana    1979     6    20     0  10.5 -47   tropical depression -1          25     1010          NA          NA
 4 Ana    1979     6    20     6  10.9 -48.1 tropical depression -1          25     1010          NA          NA
 5 Ana    1979     6    20    12  11.3 -49.2 tropical depression -1          25     1010          NA          NA
 6 Ana    1979     6    20    18  11.8 -50.2 tropical depression -1          25     1009          NA          NA
 7 Ana    1979     6    21     0  12.3 -51.1 tropical depression -1          30     1009          NA          NA
 8 Ana    1979     6    21     6  12.9 -51.9 tropical depression -1          30     1008          NA          NA
 9 Ana    1979     6    21    12  13.5 -52.7 tropical depression -1          30     1008          NA          NA
10 Ana    1979     6    21    18  13.9 -53.5 tropical depression -1          30     1007          NA          NA
# … with 90 more rows
```
…
